<?xml version='1.0' encoding='UTF-8'?>
<!-- This file was generated by dvisvgm 2.13.1 -->
<svg version='1.1' xmlns='http://www.w3.org/2000/svg' xmlns:xlink='http://www.w3.org/1999/xlink' width='141.686503pt' height='194.476283pt' viewBox='123.62464 161.104059 141.686503 194.476283'>
<defs>
<path id='g3-50' d='M2.247572-1.625903C2.375093-1.745455 2.709838-2.008468 2.83736-2.12005C3.331507-2.574346 3.801743-3.012702 3.801743-3.737983C3.801743-4.686426 3.004732-5.300125 2.008468-5.300125C1.052055-5.300125 .422416-4.574844 .422416-3.865504C.422416-3.474969 .73325-3.419178 .844832-3.419178C1.012204-3.419178 1.259278-3.53873 1.259278-3.841594C1.259278-4.25604 .860772-4.25604 .765131-4.25604C.996264-4.837858 1.530262-5.037111 1.920797-5.037111C2.662017-5.037111 3.044583-4.407472 3.044583-3.737983C3.044583-2.909091 2.462765-2.303362 1.522291-1.338979L.518057-.302864C.422416-.215193 .422416-.199253 .422416 0H3.57061L3.801743-1.42665H3.55467C3.53076-1.267248 3.466999-.868742 3.371357-.71731C3.323537-.653549 2.717808-.653549 2.590286-.653549H1.171606L2.247572-1.625903Z'/>
<path id='g0-0' d='M5.571108-1.809215C5.69863-1.809215 5.873973-1.809215 5.873973-1.992528S5.69863-2.175841 5.571108-2.175841H1.004234C.876712-2.175841 .70137-2.175841 .70137-1.992528S.876712-1.809215 1.004234-1.809215H5.571108Z'/>
<path id='g1-97' d='M3.124284-3.036613C3.052553-3.172105 2.82142-3.514819 2.335243-3.514819C1.3868-3.514819 .342715-2.406974 .342715-1.227397C.342715-.398506 .876712 .079701 1.490411 .079701C2.000498 .079701 2.438854-.326775 2.582316-.486177C2.725778 .063761 3.267746 .079701 3.363387 .079701C3.730012 .079701 3.913325-.223163 3.977086-.358655C4.136488-.645579 4.24807-1.107846 4.24807-1.139726C4.24807-1.187547 4.216189-1.243337 4.120548-1.243337S4.008966-1.195517 3.961146-.996264C3.849564-.557908 3.698132-.143462 3.387298-.143462C3.203985-.143462 3.132254-.294894 3.132254-.518057C3.132254-.653549 3.203985-.924533 3.251806-1.123786S3.419178-1.801245 3.451059-1.944707L3.610461-2.550436C3.650311-2.741719 3.737983-3.076463 3.737983-3.116314C3.737983-3.299626 3.58655-3.363387 3.482939-3.363387C3.363387-3.363387 3.164134-3.283686 3.124284-3.036613ZM2.582316-.860772C2.183811-.310834 1.769365-.143462 1.514321-.143462C1.147696-.143462 .964384-.478207 .964384-.892653C.964384-1.267248 1.179577-2.12005 1.354919-2.470735C1.586052-2.956912 1.976588-3.291656 2.343213-3.291656C2.86127-3.291656 3.012702-2.709838 3.012702-2.614197C3.012702-2.582316 2.81345-1.801245 2.765629-1.594022C2.662017-1.219427 2.662017-1.203487 2.582316-.860772Z'/>
<path id='g1-98' d='M1.944707-5.292154C1.952677-5.308095 1.976588-5.411706 1.976588-5.419676C1.976588-5.459527 1.944707-5.531258 1.849066-5.531258C1.817186-5.531258 1.570112-5.507347 1.3868-5.491407L.940473-5.459527C.765131-5.443587 .68543-5.435616 .68543-5.292154C.68543-5.180573 .797011-5.180573 .892653-5.180573C1.275218-5.180573 1.275218-5.132752 1.275218-5.061021C1.275218-5.0132 1.195517-4.694396 1.147696-4.511083L.454296-1.737484C.390535-1.466501 .390535-1.346949 .390535-1.211457C.390535-.390535 .892653 .079701 1.506351 .079701C2.486675 .079701 3.506849-1.052055 3.506849-2.207721C3.506849-2.996762 2.996762-3.514819 2.359153-3.514819C1.912827-3.514819 1.570112-3.227895 1.39477-3.076463L1.944707-5.292154ZM1.506351-.143462C1.219427-.143462 .932503-.366625 .932503-.948443C.932503-1.163636 .964384-1.362889 1.060025-1.745455C1.115816-1.976588 1.171606-2.199751 1.235367-2.430884C1.275218-2.574346 1.275218-2.590286 1.370859-2.709838C1.641843-3.044583 2.000498-3.291656 2.335243-3.291656C2.733748-3.291656 2.885181-2.901121 2.885181-2.542466C2.885181-2.247572 2.709838-1.39477 2.470735-.924533C2.263512-.494147 1.880946-.143462 1.506351-.143462Z'/>
<path id='g4-1' d='M5.152677-8.320797C5.068991-8.488169 5.045081-8.53599 4.877709-8.53599C4.698381-8.53599 4.674471-8.488169 4.590785-8.320797L.597758-.239103C.573848-.203238 .549938-.131507 .549938-.083686C.549938-.011955 .561893 0 .800996 0H8.942466C9.181569 0 9.193524-.011955 9.193524-.083686C9.193524-.131507 9.169614-.203238 9.145704-.239103L5.152677-8.320797ZM4.507098-7.436115L7.770859-.824907H1.255293L4.507098-7.436115Z'/>
<path id='g4-48' d='M5.355915-3.825654C5.355915-4.817933 5.296139-5.786301 4.865753-6.694894C4.375592-7.687173 3.514819-7.950187 2.929016-7.950187C2.235616-7.950187 1.3868-7.603487 .944458-6.611208C.609714-5.858032 .490162-5.116812 .490162-3.825654C.490162-2.666002 .573848-1.793275 1.004234-.944458C1.470486-.035866 2.295392 .251059 2.917061 .251059C3.957161 .251059 4.554919-.37061 4.901619-1.06401C5.332005-1.960648 5.355915-3.132254 5.355915-3.825654ZM2.917061 .011955C2.534496 .011955 1.75741-.203238 1.530262-1.506351C1.398755-2.223661 1.398755-3.132254 1.398755-3.969116C1.398755-4.94944 1.398755-5.834122 1.590037-6.539477C1.793275-7.340473 2.402989-7.711083 2.917061-7.711083C3.371357-7.711083 4.064757-7.436115 4.291905-6.40797C4.447323-5.726526 4.447323-4.782067 4.447323-3.969116C4.447323-3.16812 4.447323-2.259527 4.315816-1.530262C4.088667-.215193 3.335492 .011955 2.917061 .011955Z'/>
<path id='g2-62' d='M7.878456-2.725778C8.105604-2.833375 8.117559-2.905106 8.117559-2.988792C8.117559-3.060523 8.093649-3.144209 7.878456-3.239851L1.41071-6.216687C1.255293-6.288418 1.231382-6.300374 1.207472-6.300374C1.06401-6.300374 .980324-6.180822 .980324-6.085181C.980324-5.941719 1.075965-5.893898 1.231382-5.822167L7.376339-2.988792L1.219427-.143462C.980324-.035866 .980324 .047821 .980324 .119552C.980324 .215193 1.06401 .334745 1.207472 .334745C1.231382 .334745 1.243337 .32279 1.41071 .251059L7.878456-2.725778Z'/>
<path id='g2-97' d='M3.598506-1.422665C3.53873-1.219427 3.53873-1.195517 3.371357-.968369C3.108344-.633624 2.582316-.119552 2.020423-.119552C1.530262-.119552 1.255293-.561893 1.255293-1.267248C1.255293-1.924782 1.625903-3.263761 1.853051-3.765878C2.259527-4.60274 2.82142-5.033126 3.287671-5.033126C4.076712-5.033126 4.23213-4.052802 4.23213-3.957161C4.23213-3.945205 4.196264-3.789788 4.184309-3.765878L3.598506-1.422665ZM4.363636-4.483188C4.23213-4.794022 3.90934-5.272229 3.287671-5.272229C1.936737-5.272229 .478207-3.526775 .478207-1.75741C.478207-.573848 1.171606 .119552 1.984558 .119552C2.642092 .119552 3.203985-.394521 3.53873-.789041C3.658281-.083686 4.220174 .119552 4.578829 .119552S5.224408-.095641 5.439601-.526027C5.630884-.932503 5.798257-1.661768 5.798257-1.709589C5.798257-1.769365 5.750436-1.817186 5.678705-1.817186C5.571108-1.817186 5.559153-1.75741 5.511333-1.578082C5.332005-.872727 5.104857-.119552 4.614695-.119552C4.267995-.119552 4.244085-.430386 4.244085-.669489C4.244085-.944458 4.27995-1.075965 4.387547-1.542217C4.471233-1.841096 4.531009-2.10411 4.62665-2.450809C5.068991-4.244085 5.176588-4.674471 5.176588-4.746202C5.176588-4.913574 5.045081-5.045081 4.865753-5.045081C4.483188-5.045081 4.387547-4.62665 4.363636-4.483188Z'/>
<path id='g2-120' d='M5.66675-4.877709C5.284184-4.805978 5.140722-4.519054 5.140722-4.291905C5.140722-4.004981 5.36787-3.90934 5.535243-3.90934C5.893898-3.90934 6.144956-4.220174 6.144956-4.542964C6.144956-5.045081 5.571108-5.272229 5.068991-5.272229C4.339726-5.272229 3.93325-4.554919 3.825654-4.327771C3.550685-5.224408 2.809465-5.272229 2.594271-5.272229C1.374844-5.272229 .729265-3.706102 .729265-3.443088C.729265-3.395268 .777086-3.335492 .860772-3.335492C.956413-3.335492 .980324-3.407223 1.004234-3.455044C1.41071-4.782067 2.211706-5.033126 2.558406-5.033126C3.096389-5.033126 3.203985-4.531009 3.203985-4.244085C3.203985-3.981071 3.132254-3.706102 2.988792-3.132254L2.582316-1.494396C2.402989-.777086 2.056289-.119552 1.422665-.119552C1.362889-.119552 1.06401-.119552 .812951-.274969C1.243337-.358655 1.338979-.71731 1.338979-.860772C1.338979-1.099875 1.159651-1.243337 .932503-1.243337C.645579-1.243337 .334745-.992279 .334745-.609714C.334745-.107597 .896638 .119552 1.41071 .119552C1.984558 .119552 2.391034-.334745 2.642092-.824907C2.833375-.119552 3.431133 .119552 3.873474 .119552C5.092902 .119552 5.738481-1.446575 5.738481-1.709589C5.738481-1.769365 5.69066-1.817186 5.618929-1.817186C5.511333-1.817186 5.499377-1.75741 5.463512-1.661768C5.140722-.609714 4.447323-.119552 3.90934-.119552C3.490909-.119552 3.263761-.430386 3.263761-.920548C3.263761-1.183562 3.311582-1.374844 3.502864-2.163885L3.921295-3.789788C4.100623-4.507098 4.507098-5.033126 5.057036-5.033126C5.080946-5.033126 5.415691-5.033126 5.66675-4.877709Z'/>
</defs>
<g id='page1'>
<g transform='matrix(0.996264 0 0 0.996264 123.625 161.104)'>
<path d='M 0.250937 194.955L 141.967 194.955L 141.967 0.250937L 0.250937 0.250937L 0.250937 194.955Z' fill='none' stroke='#000000' stroke-linecap='round' stroke-linejoin='round' stroke-miterlimit='10.0375' stroke-width='0.501875'/>
</g>
<g>
</g>
<g>
<g transform='matrix(0.996264 0 0 0.996264 123.625 161.104)'>
<path d='M 67.4672 188.511L 67.4672 6.6943' fill='none' stroke='#000000' stroke-dasharray='7.90509,7.90509' stroke-linecap='round' stroke-linejoin='round' stroke-miterlimit='10.0375' stroke-width='1.00375'/>
</g>
</g>
<g>
</g>
<g>
<g transform='matrix(0.996264 0 0 0.996264 123.625 161.104)'>
<path d='M 128.246 107.648L 6.44336 107.648' fill='none' stroke='#000000' stroke-linecap='round' stroke-linejoin='round' stroke-miterlimit='10.0375' stroke-width='0.501875'/>
</g>
</g>
<g>
</g>
<g>
<g transform='matrix(0.996264 0 0 0.996264 123.625 161.104)'>
<path d='M 135.774 107.648L 128.246 105.631L 128.246 109.665L 135.774 107.648Z' fill='#000000'/>
</g>
</g>
<g>
</g>
<g>
<g transform='matrix(0.996264 0 0 0.996264 123.625 161.104)'>
<path d='M 135.774 107.648L 128.246 105.631L 128.246 109.665L 135.774 107.648Z' fill='none' stroke='#000000' stroke-linecap='round' stroke-linejoin='round' stroke-miterlimit='10.0375' stroke-width='0.501875'/>
</g>
</g>
<use x='250.748065' y='264.703286' xlink:href='#g2-120'/>
<g transform='matrix(0.996264 0 0 0.996264 123.625 161.104)'>
<path d='M 7.19618 7.19618L 7.49753 8.99979L 7.79889 10.7944L 8.10024 12.5799L 8.4016 14.3564L 8.70295 16.1238L 9.00431 17.8822L 9.30566 19.6316L 9.60702 21.3719L 9.90837 23.1032L 10.2097 24.8255L 10.5111 26.5387L 10.8124 28.2428L 11.1138 29.938L 11.4152 31.624L 11.7165 33.3011L 12.0179 34.9691L 12.3192 36.628L 12.6206 38.278L 12.9219 39.9188L 13.2233 41.5507L 13.5246 43.1735L 13.826 44.7872L 14.1273 46.392L 14.4287 47.9876L 14.7301 49.5743L 15.0314 51.1519L 15.3328 52.7204L 15.6341 54.2799L 15.9355 55.8304L 16.2368 57.3718L 16.5382 58.9042L 16.8395 60.4276L 17.1409 61.9419L 17.4423 63.4472L 17.7436 64.9434L 18.045 66.4306L 18.3463 67.9087L 18.6477 69.3778L 18.949 70.8379L 19.2504 72.2889L 19.5517 73.7309L 19.8531 75.1639L 20.1545 76.5878L 20.4558 78.0026L 20.7572 79.4085L 21.0585 80.8052L 21.3599 82.193L 21.6612 83.5717L 21.9626 84.9413L 22.2639 86.302L 22.5653 87.6535L 22.8667 88.9961L 23.168 90.3296L 23.4694 91.654L 23.7707 92.9694L 24.0721 94.2758L 24.3734 95.5732L 24.6748 96.8615L 24.9761 98.1407L 25.2775 99.4109L 25.5789 100.672L 25.8802 101.924L 26.1816 103.167L 26.4829 104.401L 26.7843 105.626L 27.0856 106.842L 27.387 108.049L 27.6883 109.247L 27.9897 110.436L 28.2911 111.616L 28.5924 112.787L 28.8938 113.948L 29.1951 115.101L 29.4965 116.245L 29.7978 117.379L 30.0992 118.505L 30.4005 119.621L 30.7019 120.729L 31.0032 121.827L 31.3046 122.917L 31.606 123.997L 31.9073 125.068L 32.2087 126.131L 32.51 127.184L 32.8114 128.228L 33.1127 129.263L 33.4141 130.289L 33.7154 131.306L 34.0168 132.314L 34.3182 133.313L 34.6195 134.303L 34.9209 135.284L 35.2222 136.256L 35.5236 137.219L 35.8249 138.173L 36.1263 139.117L 36.4276 140.053L 36.729 140.98L 37.0304 141.898L 37.3317 142.806L 37.6331 143.706L 37.9344 144.596L 38.2358 145.478L 38.5371 146.35L 38.8385 147.213L 39.1398 148.068L 39.4412 148.913L 39.7426 149.749L 40.0439 150.577L 40.3453 151.395L 40.6466 152.204L 40.948 153.004L 41.2493 153.795L 41.5507 154.577L 41.852 155.35L 42.1534 156.114L 42.4548 156.869L 42.7561 157.615L 43.0575 158.352L 43.3588 159.079L 43.6602 159.798L 43.9615 160.508L 44.2629 161.208L 44.5642 161.9L 44.8656 162.583L 45.167 163.256L 45.4683 163.921L 45.7697 164.576L 46.071 165.222L 46.3724 165.86L 46.6737 166.488L 46.9751 167.107L 47.2764 167.718L 47.5778 168.319L 47.8791 168.911L 48.1805 169.494L 48.4819 170.068L 48.7832 170.633L 49.0846 171.189L 49.3859 171.736L 49.6873 172.274L 49.9886 172.803L 50.29 173.323L 50.5913 173.834L 50.8927 174.335L 51.1941 174.828L 51.4954 175.312L 51.7968 175.786L 52.0981 176.252L 52.3995 176.709L 52.7008 177.156L 53.0022 177.595L 53.3035 178.024L 53.6049 178.444L 53.9063 178.856L 54.2076 179.258L 54.509 179.651L 54.8103 180.036L 55.1117 180.411L 55.413 180.777L 55.7144 181.134L 56.0157 181.482L 56.3171 181.821L 56.6185 182.151L 56.9198 182.472L 57.2212 182.784L 57.5225 183.087L 57.8239 183.381L 58.1252 183.665L 58.4266 183.941L 58.7279 184.208L 59.0293 184.465L 59.3307 184.714L 59.632 184.954L 59.9334 185.184L 60.2347 185.406L 60.5361 185.618L 60.8374 185.822L 61.1388 186.016L 61.4401 186.201L 61.7415 186.378L 62.0429 186.545L 62.3442 186.703L 62.6456 186.852L 62.9469 186.992L 63.2483 187.123L 63.5496 187.245L 63.851 187.358L 64.1523 187.462L 64.4537 187.557L 64.7551 187.643L 65.0564 187.72L 65.3578 187.788L 65.6591 187.847L 65.9605 187.896L 66.2618 187.937L 66.5632 187.969L 66.8645 187.991L 67.1659 188.005L 67.4672 188.009L 67.7686 188.005L 68.07 187.991L 68.3713 187.969L 68.6727 187.937L 68.974 187.896L 69.2754 187.847L 69.5767 187.788L 69.8781 187.72L 70.1794 187.643L 70.4808 187.557L 70.7822 187.462L 71.0835 187.358L 71.3849 187.245L 71.6862 187.123L 71.9876 186.992L 72.2889 186.852L 72.5903 186.703L 72.8916 186.545L 73.193 186.378L 73.4944 186.201L 73.7957 186.016L 74.0971 185.822L 74.3984 185.618L 74.6998 185.406L 75.0011 185.184L 75.3025 184.954L 75.6038 184.714L 75.9052 184.465L 76.2066 184.208L 76.5079 183.941L 76.8093 183.665L 77.1106 183.381L 77.412 183.087L 77.7133 182.784L 78.0147 182.472L 78.316 182.151L 78.6174 181.821L 78.9188 181.482L 79.2201 181.134L 79.5215 180.777L 79.8228 180.411L 80.1242 180.036L 80.4255 179.651L 80.7269 179.258L 81.0282 178.856L 81.3296 178.444L 81.631 178.024L 81.9323 177.595L 82.2337 177.156L 82.535 176.709L 82.8364 176.252L 83.1377 175.786L 83.4391 175.312L 83.7404 174.828L 84.0418 174.335L 84.3431 173.834L 84.6445 173.323L 84.9459 172.803L 85.2472 172.274L 85.5486 171.736L 85.8499 171.189L 86.1513 170.633L 86.4526 170.068L 86.754 169.494L 87.0553 168.911L 87.3567 168.319L 87.6581 167.718L 87.9594 167.107L 88.2608 166.488L 88.5621 165.86L 88.8635 165.222L 89.1648 164.576L 89.4662 163.921L 89.7675 163.256L 90.0689 162.583L 90.3703 161.9L 90.6716 161.208L 90.973 160.508L 91.2743 159.798L 91.5757 159.079L 91.877 158.352L 92.1784 157.615L 92.4797 156.869L 92.7811 156.114L 93.0825 155.35L 93.3838 154.577L 93.6852 153.795L 93.9865 153.004L 94.2879 152.204L 94.5892 151.395L 94.8906 150.577L 95.1919 149.749L 95.4933 148.913L 95.7947 148.068L 96.096 147.213L 96.3974 146.35L 96.6987 145.478L 97.0001 144.596L 97.3014 143.706L 97.6028 142.806L 97.9041 141.898L 98.2055 140.98L 98.5069 140.053L 98.8082 139.117L 99.1096 138.173L 99.4109 137.219L 99.7123 136.256L 100.014 135.284L 100.315 134.303L 100.616 133.313L 100.918 132.314L 101.219 131.306L 101.52 130.289L 101.822 129.263L 102.123 128.228L 102.424 127.184L 102.726 126.131L 103.027 125.068L 103.329 123.997L 103.63 122.917L 103.931 121.827L 104.233 120.729L 104.534 119.621L 104.835 118.505L 105.137 117.379L 105.438 116.245L 105.739 115.101L 106.041 113.948L 106.342 112.787L 106.643 111.616L 106.945 110.436L 107.246 109.247L 107.548 108.049L 107.849 106.842L 108.15 105.626L 108.452 104.401L 108.753 103.167L 109.054 101.924L 109.356 100.672L 109.657 99.4109L 109.958 98.1407L 110.26 96.8615L 110.561 95.5732L 110.862 94.2758L 111.164 92.9694L 111.465 91.654L 111.766 90.3296L 112.068 88.9961L 112.369 87.6535L 112.671 86.302L 112.972 84.9413L 113.273 83.5717L 113.575 82.193L 113.876 80.8052L 114.177 79.4085L 114.479 78.0026L 114.78 76.5878L 115.081 75.1639L 115.383 73.7309L 115.684 72.2889L 115.985 70.8379L 116.287 69.3778L 116.588 67.9087L 116.89 66.4306L 117.191 64.9434L 117.492 63.4472L 117.794 61.9419L 118.095 60.4276L 118.396 58.9042L 118.698 57.3718L 118.999 55.8304L 119.3 54.2799L 119.602 52.7204L 119.903 51.1519L 120.204 49.5743L 120.506 47.9876L 120.807 46.392L 121.109 44.7872L 121.41 43.1735L 121.711 41.5507L 122.013 39.9188L 122.314 38.278L 122.615 36.628L 122.917 34.9691L 123.218 33.3011L 123.519 31.624L 123.821 29.938L 124.122 28.2428L 124.423 26.5387L 124.725 24.8255L 125.026 23.1032L 125.327 21.3719L 125.629 19.6316L 125.93 17.8822L 126.232 16.1238L 126.533 14.3564L 126.834 12.5799L 127.136 10.7944L 127.437 8.99979L 127.738 7.19618' fill='none' stroke='#000000' stroke-linecap='round' stroke-linejoin='round' stroke-miterlimit='10.0375' stroke-width='2.0075'/>
</g>
<use x='204.437856' y='191.921454' xlink:href='#g2-97'/>
<use x='213.90363' y='191.921454' xlink:href='#g2-62'/>
<use x='226.329111' y='191.921454' xlink:href='#g4-48'/>
<use x='204.437856' y='212.16927' xlink:href='#g4-1'/>
<use x='217.513669' y='212.16927' xlink:href='#g2-62'/>
<use x='229.93915' y='212.16927' xlink:href='#g4-48'/>
<use x='176.902974' y='276.360666' xlink:href='#g0-0'/>
<use x='183.489481' y='276.360666' xlink:href='#g1-98'/>
<rect x='176.902974' y='277.87975' height='.398484' width='10.209091'/>
<use x='177.641431' y='285.190408' xlink:href='#g3-50'/>
<use x='181.875614' y='285.190408' xlink:href='#g1-97'/>
</g>
</svg>