<?xml version='1.0' encoding='UTF-8'?>
<!-- This file was generated by dvisvgm 2.13.1 -->
<svg version='1.1' xmlns='http://www.w3.org/2000/svg' xmlns:xlink='http://www.w3.org/1999/xlink' width='228.214633pt' height='164.202443pt' viewBox='185.013309 203.82988 228.214633 164.202443'>
<defs>
<path id='g1-120' d='M3.993026-3.180075C3.642341-3.092403 3.626401-2.781569 3.626401-2.749689C3.626401-2.574346 3.761893-2.454795 3.937235-2.454795S4.383562-2.590286 4.383562-2.933001C4.383562-3.387298 3.881445-3.514819 3.58655-3.514819C3.211955-3.514819 2.909091-3.251806 2.725778-2.940971C2.550436-3.363387 2.13599-3.514819 1.809215-3.514819C.940473-3.514819 .454296-2.518555 .454296-2.295392C.454296-2.223661 .510087-2.191781 .573848-2.191781C.669489-2.191781 .68543-2.231631 .70934-2.327273C.892653-2.909091 1.370859-3.291656 1.785305-3.291656C2.096139-3.291656 2.247572-3.068493 2.247572-2.781569C2.247572-2.622167 2.15193-2.255542 2.088169-2.000498C2.032379-1.769365 1.857036-1.060025 1.817186-.908593C1.705604-.478207 1.41868-.143462 1.060025-.143462C1.028144-.143462 .820922-.143462 .653549-.255044C1.020174-.342715 1.020174-.67746 1.020174-.68543C1.020174-.868742 .876712-.980324 .70137-.980324C.486177-.980324 .255044-.797011 .255044-.494147C.255044-.127522 .645579 .079701 1.052055 .079701C1.474471 .079701 1.769365-.239103 1.912827-.494147C2.088169-.103611 2.454795 .079701 2.83736 .079701C3.706102 .079701 4.184309-.916563 4.184309-1.139726C4.184309-1.219427 4.120548-1.243337 4.064757-1.243337C3.969116-1.243337 3.953176-1.187547 3.929265-1.107846C3.769863-.573848 3.315567-.143462 2.8533-.143462C2.590286-.143462 2.399004-.318804 2.399004-.653549C2.399004-.812951 2.446824-.996264 2.558406-1.44259C2.614197-1.681694 2.789539-2.383064 2.82939-2.534496C2.940971-2.948941 3.219925-3.291656 3.57858-3.291656C3.618431-3.291656 3.825654-3.291656 3.993026-3.180075Z'/>
<path id='g0-0' d='M7.878456-2.749689C8.081694-2.749689 8.296887-2.749689 8.296887-2.988792S8.081694-3.227895 7.878456-3.227895H1.41071C1.207472-3.227895 .992279-3.227895 .992279-2.988792S1.207472-2.749689 1.41071-2.749689H7.878456Z'/>
<path id='g2-120' d='M5.66675-4.877709C5.284184-4.805978 5.140722-4.519054 5.140722-4.291905C5.140722-4.004981 5.36787-3.90934 5.535243-3.90934C5.893898-3.90934 6.144956-4.220174 6.144956-4.542964C6.144956-5.045081 5.571108-5.272229 5.068991-5.272229C4.339726-5.272229 3.93325-4.554919 3.825654-4.327771C3.550685-5.224408 2.809465-5.272229 2.594271-5.272229C1.374844-5.272229 .729265-3.706102 .729265-3.443088C.729265-3.395268 .777086-3.335492 .860772-3.335492C.956413-3.335492 .980324-3.407223 1.004234-3.455044C1.41071-4.782067 2.211706-5.033126 2.558406-5.033126C3.096389-5.033126 3.203985-4.531009 3.203985-4.244085C3.203985-3.981071 3.132254-3.706102 2.988792-3.132254L2.582316-1.494396C2.402989-.777086 2.056289-.119552 1.422665-.119552C1.362889-.119552 1.06401-.119552 .812951-.274969C1.243337-.358655 1.338979-.71731 1.338979-.860772C1.338979-1.099875 1.159651-1.243337 .932503-1.243337C.645579-1.243337 .334745-.992279 .334745-.609714C.334745-.107597 .896638 .119552 1.41071 .119552C1.984558 .119552 2.391034-.334745 2.642092-.824907C2.833375-.119552 3.431133 .119552 3.873474 .119552C5.092902 .119552 5.738481-1.446575 5.738481-1.709589C5.738481-1.769365 5.69066-1.817186 5.618929-1.817186C5.511333-1.817186 5.499377-1.75741 5.463512-1.661768C5.140722-.609714 4.447323-.119552 3.90934-.119552C3.490909-.119552 3.263761-.430386 3.263761-.920548C3.263761-1.183562 3.311582-1.374844 3.502864-2.163885L3.921295-3.789788C4.100623-4.507098 4.507098-5.033126 5.057036-5.033126C5.080946-5.033126 5.415691-5.033126 5.66675-4.877709Z'/>
<path id='g2-121' d='M3.144209 1.338979C2.82142 1.793275 2.355168 2.199751 1.769365 2.199751C1.625903 2.199751 1.052055 2.175841 .872727 1.625903C.908593 1.637858 .968369 1.637858 .992279 1.637858C1.350934 1.637858 1.590037 1.327024 1.590037 1.052055S1.362889 .681445 1.183562 .681445C.992279 .681445 .573848 .824907 .573848 1.41071C.573848 2.020423 1.08792 2.438854 1.769365 2.438854C2.964882 2.438854 4.172354 1.338979 4.507098 .011955L5.678705-4.65056C5.69066-4.710336 5.71457-4.782067 5.71457-4.853798C5.71457-5.033126 5.571108-5.152677 5.391781-5.152677C5.284184-5.152677 5.033126-5.104857 4.937484-4.746202L4.052802-1.231382C3.993026-1.016189 3.993026-.992279 3.897385-.860772C3.658281-.526027 3.263761-.119552 2.689913-.119552C2.020423-.119552 1.960648-.777086 1.960648-1.099875C1.960648-1.78132 2.283437-2.701868 2.606227-3.56264C2.737733-3.90934 2.809465-4.076712 2.809465-4.315816C2.809465-4.817933 2.450809-5.272229 1.865006-5.272229C.765131-5.272229 .32279-3.53873 .32279-3.443088C.32279-3.395268 .37061-3.335492 .454296-3.335492C.561893-3.335492 .573848-3.383313 .621669-3.550685C.908593-4.554919 1.362889-5.033126 1.829141-5.033126C1.936737-5.033126 2.139975-5.033126 2.139975-4.638605C2.139975-4.327771 2.008468-3.981071 1.829141-3.526775C1.243337-1.960648 1.243337-1.566127 1.243337-1.279203C1.243337-.143462 2.056289 .119552 2.654047 .119552C3.000747 .119552 3.431133 .011955 3.849564-.430386L3.861519-.418431C3.682192 .286924 3.56264 .753176 3.144209 1.338979Z'/>
<path id='g3-43' d='M4.770112-2.761644H8.069738C8.237111-2.761644 8.452304-2.761644 8.452304-2.976837C8.452304-3.203985 8.249066-3.203985 8.069738-3.203985H4.770112V-6.503611C4.770112-6.670984 4.770112-6.886177 4.554919-6.886177C4.327771-6.886177 4.327771-6.682939 4.327771-6.503611V-3.203985H1.028144C.860772-3.203985 .645579-3.203985 .645579-2.988792C.645579-2.761644 .848817-2.761644 1.028144-2.761644H4.327771V.537983C4.327771 .705355 4.327771 .920548 4.542964 .920548C4.770112 .920548 4.770112 .71731 4.770112 .537983V-2.761644Z'/>
<path id='g3-48' d='M5.355915-3.825654C5.355915-4.817933 5.296139-5.786301 4.865753-6.694894C4.375592-7.687173 3.514819-7.950187 2.929016-7.950187C2.235616-7.950187 1.3868-7.603487 .944458-6.611208C.609714-5.858032 .490162-5.116812 .490162-3.825654C.490162-2.666002 .573848-1.793275 1.004234-.944458C1.470486-.035866 2.295392 .251059 2.917061 .251059C3.957161 .251059 4.554919-.37061 4.901619-1.06401C5.332005-1.960648 5.355915-3.132254 5.355915-3.825654ZM2.917061 .011955C2.534496 .011955 1.75741-.203238 1.530262-1.506351C1.398755-2.223661 1.398755-3.132254 1.398755-3.969116C1.398755-4.94944 1.398755-5.834122 1.590037-6.539477C1.793275-7.340473 2.402989-7.711083 2.917061-7.711083C3.371357-7.711083 4.064757-7.436115 4.291905-6.40797C4.447323-5.726526 4.447323-4.782067 4.447323-3.969116C4.447323-3.16812 4.447323-2.259527 4.315816-1.530262C4.088667-.215193 3.335492 .011955 2.917061 .011955Z'/>
<path id='g3-49' d='M3.443088-7.663263C3.443088-7.938232 3.443088-7.950187 3.203985-7.950187C2.917061-7.627397 2.319303-7.185056 1.08792-7.185056V-6.838356C1.362889-6.838356 1.960648-6.838356 2.618182-7.149191V-.920548C2.618182-.490162 2.582316-.3467 1.530262-.3467H1.159651V0C1.482441-.02391 2.642092-.02391 3.036613-.02391S4.578829-.02391 4.901619 0V-.3467H4.531009C3.478954-.3467 3.443088-.490162 3.443088-.920548V-7.663263Z'/>
<path id='g3-50' d='M5.260274-2.008468H4.99726C4.961395-1.80523 4.865753-1.147696 4.746202-.956413C4.662516-.848817 3.981071-.848817 3.622416-.848817H1.41071C1.733499-1.123786 2.462765-1.888917 2.773599-2.175841C4.590785-3.849564 5.260274-4.471233 5.260274-5.654795C5.260274-7.029639 4.172354-7.950187 2.785554-7.950187S.585803-6.766625 .585803-5.738481C.585803-5.128767 1.111831-5.128767 1.147696-5.128767C1.398755-5.128767 1.709589-5.308095 1.709589-5.69066C1.709589-6.025405 1.482441-6.252553 1.147696-6.252553C1.0401-6.252553 1.016189-6.252553 .980324-6.240598C1.207472-7.053549 1.853051-7.603487 2.630137-7.603487C3.646326-7.603487 4.267995-6.75467 4.267995-5.654795C4.267995-4.638605 3.682192-3.753923 3.000747-2.988792L.585803-.286924V0H4.94944L5.260274-2.008468Z'/>
<path id='g3-51' d='M2.199751-4.291905C1.996513-4.27995 1.948692-4.267995 1.948692-4.160399C1.948692-4.040847 2.008468-4.040847 2.223661-4.040847H2.773599C3.789788-4.040847 4.244085-3.203985 4.244085-2.056289C4.244085-.490162 3.431133-.071731 2.84533-.071731C2.271482-.071731 1.291158-.3467 .944458-1.135741C1.327024-1.075965 1.673724-1.291158 1.673724-1.721544C1.673724-2.068244 1.422665-2.307347 1.08792-2.307347C.800996-2.307347 .490162-2.139975 .490162-1.685679C.490162-.621669 1.554172 .251059 2.881196 .251059C4.303861 .251059 5.355915-.836862 5.355915-2.044334C5.355915-3.144209 4.471233-4.004981 3.323537-4.208219C4.363636-4.507098 5.033126-5.379826 5.033126-6.312329C5.033126-7.256787 4.052802-7.950187 2.893151-7.950187C1.697634-7.950187 .812951-7.220922 .812951-6.348194C.812951-5.869988 1.183562-5.774346 1.362889-5.774346C1.613948-5.774346 1.900872-5.953674 1.900872-6.312329C1.900872-6.694894 1.613948-6.862267 1.350934-6.862267C1.279203-6.862267 1.255293-6.862267 1.219427-6.850311C1.673724-7.663263 2.797509-7.663263 2.857285-7.663263C3.251806-7.663263 4.028892-7.483935 4.028892-6.312329C4.028892-6.085181 3.993026-5.415691 3.646326-4.901619C3.287671-4.375592 2.881196-4.339726 2.558406-4.327771L2.199751-4.291905Z'/>
<path id='g3-52' d='M4.315816-7.782814C4.315816-8.009963 4.315816-8.069738 4.148443-8.069738C4.052802-8.069738 4.016936-8.069738 3.921295-7.926276L.32279-2.343213V-1.996513H3.466999V-.908593C3.466999-.466252 3.443088-.3467 2.570361-.3467H2.331258V0C2.606227-.02391 3.550685-.02391 3.88543-.02391S5.176588-.02391 5.451557 0V-.3467H5.212453C4.351681-.3467 4.315816-.466252 4.315816-.908593V-1.996513H5.523288V-2.343213H4.315816V-7.782814ZM3.526775-6.850311V-2.343213H.621669L3.526775-6.850311Z'/>
<path id='g3-53' d='M1.530262-6.850311C2.044334-6.682939 2.462765-6.670984 2.594271-6.670984C3.945205-6.670984 4.805978-7.663263 4.805978-7.830635C4.805978-7.878456 4.782067-7.938232 4.710336-7.938232C4.686426-7.938232 4.662516-7.938232 4.554919-7.890411C3.88543-7.603487 3.311582-7.567621 3.000747-7.567621C2.211706-7.567621 1.649813-7.806725 1.422665-7.902366C1.338979-7.938232 1.315068-7.938232 1.303113-7.938232C1.207472-7.938232 1.207472-7.866501 1.207472-7.675218V-4.124533C1.207472-3.90934 1.207472-3.837609 1.350934-3.837609C1.41071-3.837609 1.422665-3.849564 1.542217-3.993026C1.876961-4.483188 2.438854-4.770112 3.036613-4.770112C3.670237-4.770112 3.981071-4.184309 4.076712-3.981071C4.27995-3.514819 4.291905-2.929016 4.291905-2.47472S4.291905-1.338979 3.957161-.800996C3.694147-.37061 3.227895-.071731 2.701868-.071731C1.912827-.071731 1.135741-.609714 .920548-1.482441C.980324-1.458531 1.052055-1.446575 1.111831-1.446575C1.315068-1.446575 1.637858-1.566127 1.637858-1.972603C1.637858-2.307347 1.41071-2.49863 1.111831-2.49863C.896638-2.49863 .585803-2.391034 .585803-1.924782C.585803-.908593 1.398755 .251059 2.725778 .251059C4.076712 .251059 5.260274-.884682 5.260274-2.402989C5.260274-3.825654 4.303861-5.009215 3.048568-5.009215C2.367123-5.009215 1.841096-4.710336 1.530262-4.375592V-6.850311Z'/>
<path id='g3-61' d='M8.069738-3.873474C8.237111-3.873474 8.452304-3.873474 8.452304-4.088667C8.452304-4.315816 8.249066-4.315816 8.069738-4.315816H1.028144C.860772-4.315816 .645579-4.315816 .645579-4.100623C.645579-3.873474 .848817-3.873474 1.028144-3.873474H8.069738ZM8.069738-1.649813C8.237111-1.649813 8.452304-1.649813 8.452304-1.865006C8.452304-2.092154 8.249066-2.092154 8.069738-2.092154H1.028144C.860772-2.092154 .645579-2.092154 .645579-1.876961C.645579-1.649813 .848817-1.649813 1.028144-1.649813H8.069738Z'/>
<path id='g3-101' d='M4.578829-2.773599C4.841843-2.773599 4.865753-2.773599 4.865753-3.000747C4.865753-4.208219 4.220174-5.332005 2.773599-5.332005C1.41071-5.332005 .358655-4.100623 .358655-2.618182C.358655-1.0401 1.578082 .119552 2.905106 .119552C4.327771 .119552 4.865753-1.171606 4.865753-1.422665C4.865753-1.494396 4.805978-1.542217 4.734247-1.542217C4.638605-1.542217 4.614695-1.482441 4.590785-1.422665C4.27995-.418431 3.478954-.143462 2.976837-.143462S1.267248-.478207 1.267248-2.546451V-2.773599H4.578829ZM1.279203-3.000747C1.374844-4.877709 2.426899-5.092902 2.761644-5.092902C4.040847-5.092902 4.112578-3.407223 4.124533-3.000747H1.279203Z'/>
</defs>
<g id='page1'>
<g transform='matrix(0.996264 0 0 0.996264 185.013 203.83)'>
<path d='M 129.086 13.8237L 129.086 164.567' fill='none' stroke='#000000' stroke-linecap='round' stroke-linejoin='round' stroke-miterlimit='10.0375' stroke-width='0.501875'/>
</g>
<g transform='matrix(0.996264 0 0 0.996264 185.013 203.83)'>
<path d='M 129.086 6.29557L 127.069 13.8237L 131.103 13.8237L 129.086 6.29557Z' fill='#000000'/>
</g>
<g transform='matrix(0.996264 0 0 0.996264 185.013 203.83)'>
<path d='M 129.086 6.29557L 127.069 13.8237L 131.103 13.8237L 129.086 6.29557Z' fill='none' stroke='#000000' stroke-linecap='round' stroke-linejoin='round' stroke-miterlimit='10.0375' stroke-width='0.501875'/>
</g>
<g transform='matrix(0.996264 0 0 0.996264 185.013 203.83)'>
<path d='M 126.81 123.693L 131.362 123.693' fill='none' stroke='#000000' stroke-linecap='round' stroke-linejoin='round' stroke-miterlimit='10.0375' stroke-width='0.501875'/>
</g>
<g transform='matrix(0.996264 0 0 0.996264 185.013 203.83)'>
<path d='M 126.81 96.8527L 131.362 96.8527' fill='none' stroke='#000000' stroke-linecap='round' stroke-linejoin='round' stroke-miterlimit='10.0375' stroke-width='0.501875'/>
</g>
<g transform='matrix(0.996264 0 0 0.996264 185.013 203.83)'>
<path d='M 126.81 70.012L 131.362 70.012' fill='none' stroke='#000000' stroke-linecap='round' stroke-linejoin='round' stroke-miterlimit='10.0375' stroke-width='0.501875'/>
</g>
<g transform='matrix(0.996264 0 0 0.996264 185.013 203.83)'>
<path d='M 126.81 43.1713L 131.362 43.1713' fill='none' stroke='#000000' stroke-linecap='round' stroke-linejoin='round' stroke-miterlimit='10.0375' stroke-width='0.501875'/>
</g>
<g transform='matrix(0.996264 0 0 0.996264 185.013 203.83)'>
<path d='M 126.81 16.3307L 131.362 16.3307' fill='none' stroke='#000000' stroke-linecap='round' stroke-linejoin='round' stroke-miterlimit='10.0375' stroke-width='0.501875'/>
</g>
<g transform='matrix(0.996264 0 0 0.996264 185.013 203.83)'>
<path d='M 127.948 163.954L 130.224 163.954' fill='none' stroke='#000000' stroke-linecap='round' stroke-linejoin='round' stroke-miterlimit='10.0375' stroke-width='0.501875'/>
</g>
<g transform='matrix(0.996264 0 0 0.996264 185.013 203.83)'>
<path d='M 127.948 137.114L 130.224 137.114' fill='none' stroke='#000000' stroke-linecap='round' stroke-linejoin='round' stroke-miterlimit='10.0375' stroke-width='0.501875'/>
</g>
<g transform='matrix(0.996264 0 0 0.996264 185.013 203.83)'>
<path d='M 127.948 110.273L 130.224 110.273' fill='none' stroke='#000000' stroke-linecap='round' stroke-linejoin='round' stroke-miterlimit='10.0375' stroke-width='0.501875'/>
</g>
<g transform='matrix(0.996264 0 0 0.996264 185.013 203.83)'>
<path d='M 127.948 83.4323L 130.224 83.4323' fill='none' stroke='#000000' stroke-linecap='round' stroke-linejoin='round' stroke-miterlimit='10.0375' stroke-width='0.501875'/>
</g>
<g transform='matrix(0.996264 0 0 0.996264 185.013 203.83)'>
<path d='M 127.948 56.5917L 130.224 56.5917' fill='none' stroke='#000000' stroke-linecap='round' stroke-linejoin='round' stroke-miterlimit='10.0375' stroke-width='0.501875'/>
</g>
<g transform='matrix(0.996264 0 0 0.996264 185.013 203.83)'>
<path d='M 127.948 29.751L 130.224 29.751' fill='none' stroke='#000000' stroke-linecap='round' stroke-linejoin='round' stroke-miterlimit='10.0375' stroke-width='0.501875'/>
</g>
<g transform='matrix(.7 0 0 .7 95.8425 98.1003)'>
<use x='319.475262' y='331.738464' xlink:href='#g3-49'/>
</g>
<g transform='matrix(.7 0 0 .7 95.8425 90.0783)'>
<use x='319.475262' y='304.998072' xlink:href='#g3-50'/>
</g>
<g transform='matrix(.7 0 0 .7 95.8425 82.056)'>
<use x='319.475262' y='278.257681' xlink:href='#g3-51'/>
</g>
<g transform='matrix(.7 0 0 .7 95.8425 74.034)'>
<use x='319.475262' y='251.51729' xlink:href='#g3-52'/>
</g>
<g transform='matrix(.7 0 0 .7 95.8425 66.012)'>
<use x='319.475262' y='224.776914' xlink:href='#g3-53'/>
</g>
<use x='302.430552' y='210.412734' xlink:href='#g2-121'/>
<g transform='matrix(0.996264 0 0 0.996264 185.013 203.83)'>
<path d='M 215.658 150.534L 0.250937 150.534' fill='none' stroke='#000000' stroke-linecap='round' stroke-linejoin='round' stroke-miterlimit='10.0375' stroke-width='0.501875'/>
</g>
<g transform='matrix(0.996264 0 0 0.996264 185.013 203.83)'>
<path d='M 223.186 150.534L 215.658 148.517L 215.658 152.551L 223.186 150.534Z' fill='#000000'/>
</g>
<g transform='matrix(0.996264 0 0 0.996264 185.013 203.83)'>
<path d='M 223.186 150.534L 215.658 148.517L 215.658 152.551L 223.186 150.534Z' fill='none' stroke='#000000' stroke-linecap='round' stroke-linejoin='round' stroke-miterlimit='10.0375' stroke-width='0.501875'/>
</g>
<g transform='matrix(0.996264 0 0 0.996264 185.013 203.83)'>
<path d='M 21.7235 148.258L 21.7235 152.81' fill='none' stroke='#000000' stroke-linecap='round' stroke-linejoin='round' stroke-miterlimit='10.0375' stroke-width='0.501875'/>
</g>
<g transform='matrix(0.996264 0 0 0.996264 185.013 203.83)'>
<path d='M 48.5641 148.258L 48.5641 152.81' fill='none' stroke='#000000' stroke-linecap='round' stroke-linejoin='round' stroke-miterlimit='10.0375' stroke-width='0.501875'/>
</g>
<g transform='matrix(0.996264 0 0 0.996264 185.013 203.83)'>
<path d='M 75.4048 148.258L 75.4048 152.81' fill='none' stroke='#000000' stroke-linecap='round' stroke-linejoin='round' stroke-miterlimit='10.0375' stroke-width='0.501875'/>
</g>
<g transform='matrix(0.996264 0 0 0.996264 185.013 203.83)'>
<path d='M 102.245 148.258L 102.245 152.81' fill='none' stroke='#000000' stroke-linecap='round' stroke-linejoin='round' stroke-miterlimit='10.0375' stroke-width='0.501875'/>
</g>
<g transform='matrix(0.996264 0 0 0.996264 185.013 203.83)'>
<path d='M 155.927 148.258L 155.927 152.81' fill='none' stroke='#000000' stroke-linecap='round' stroke-linejoin='round' stroke-miterlimit='10.0375' stroke-width='0.501875'/>
</g>
<g transform='matrix(0.996264 0 0 0.996264 185.013 203.83)'>
<path d='M 182.767 148.258L 182.767 152.81' fill='none' stroke='#000000' stroke-linecap='round' stroke-linejoin='round' stroke-miterlimit='10.0375' stroke-width='0.501875'/>
</g>
<g transform='matrix(0.996264 0 0 0.996264 185.013 203.83)'>
<path d='M 209.608 148.258L 209.608 152.81' fill='none' stroke='#000000' stroke-linecap='round' stroke-linejoin='round' stroke-miterlimit='10.0375' stroke-width='0.501875'/>
</g>
<g transform='matrix(0.996264 0 0 0.996264 185.013 203.83)'>
<path d='M 8.30314 149.396L 8.30314 151.672' fill='none' stroke='#000000' stroke-linecap='round' stroke-linejoin='round' stroke-miterlimit='10.0375' stroke-width='0.501875'/>
</g>
<g transform='matrix(0.996264 0 0 0.996264 185.013 203.83)'>
<path d='M 35.1438 149.396L 35.1438 151.672' fill='none' stroke='#000000' stroke-linecap='round' stroke-linejoin='round' stroke-miterlimit='10.0375' stroke-width='0.501875'/>
</g>
<g transform='matrix(0.996264 0 0 0.996264 185.013 203.83)'>
<path d='M 61.9845 149.396L 61.9845 151.672' fill='none' stroke='#000000' stroke-linecap='round' stroke-linejoin='round' stroke-miterlimit='10.0375' stroke-width='0.501875'/>
</g>
<g transform='matrix(0.996264 0 0 0.996264 185.013 203.83)'>
<path d='M 88.8251 149.396L 88.8251 151.672' fill='none' stroke='#000000' stroke-linecap='round' stroke-linejoin='round' stroke-miterlimit='10.0375' stroke-width='0.501875'/>
</g>
<g transform='matrix(0.996264 0 0 0.996264 185.013 203.83)'>
<path d='M 115.666 149.396L 115.666 151.672' fill='none' stroke='#000000' stroke-linecap='round' stroke-linejoin='round' stroke-miterlimit='10.0375' stroke-width='0.501875'/>
</g>
<g transform='matrix(0.996264 0 0 0.996264 185.013 203.83)'>
<path d='M 142.506 149.396L 142.506 151.672' fill='none' stroke='#000000' stroke-linecap='round' stroke-linejoin='round' stroke-miterlimit='10.0375' stroke-width='0.501875'/>
</g>
<g transform='matrix(0.996264 0 0 0.996264 185.013 203.83)'>
<path d='M 169.347 149.396L 169.347 151.672' fill='none' stroke='#000000' stroke-linecap='round' stroke-linejoin='round' stroke-miterlimit='10.0375' stroke-width='0.501875'/>
</g>
<g transform='matrix(0.996264 0 0 0.996264 185.013 203.83)'>
<path d='M 196.188 149.396L 196.188 151.672' fill='none' stroke='#000000' stroke-linecap='round' stroke-linejoin='round' stroke-miterlimit='10.0375' stroke-width='0.501875'/>
</g>
<g transform='matrix(0.996264 0 0 0.996264 185.013 203.83)'>
<path d='M 223.028 149.396L 223.028 151.672' fill='none' stroke='#000000' stroke-linecap='round' stroke-linejoin='round' stroke-miterlimit='10.0375' stroke-width='0.501875'/>
</g>
<g transform='matrix(.7 0 0 .7 61.9977 107.8788)'>
<use x='199.083713' y='369.070545' xlink:href='#g0-0'/>
<use x='208.38221' y='369.070545' xlink:href='#g3-52'/>
</g>
<g transform='matrix(.7 0 0 .7 70.02 107.8788)'>
<use x='225.824089' y='369.070545' xlink:href='#g0-0'/>
<use x='235.122586' y='369.070545' xlink:href='#g3-51'/>
</g>
<g transform='matrix(.7 0 0 .7 78.042 107.8788)'>
<use x='252.56448' y='369.070545' xlink:href='#g0-0'/>
<use x='261.862977' y='369.070545' xlink:href='#g3-50'/>
</g>
<g transform='matrix(.7 0 0 .7 86.0643 107.8788)'>
<use x='279.304871' y='369.070545' xlink:href='#g0-0'/>
<use x='288.603368' y='369.070545' xlink:href='#g3-49'/>
</g>
<g transform='matrix(.7 0 0 .7 102.1083 107.8788)'>
<use x='337.434876' y='369.070484' xlink:href='#g3-49'/>
</g>
<g transform='matrix(.7 0 0 .7 110.1306 107.8788)'>
<use x='364.175267' y='369.070484' xlink:href='#g3-50'/>
</g>
<g transform='matrix(.7 0 0 .7 118.1526 107.8788)'>
<use x='390.915658' y='369.070484' xlink:href='#g3-51'/>
</g>
<use x='405.08416' y='348.687691' xlink:href='#g2-120'/>
<g transform='matrix(0.996264 0 0 0.996264 185.013 203.83)'>
<path d='M 0.250938 150.313L 1.96874 150.299L 3.68654 150.283L 5.40434 150.266L 7.12215 150.249L 8.83995 150.23L 10.5578 150.21L 12.2756 150.188L 13.9934 150.165L 15.7112 150.141L 17.429 150.115L 19.1468 150.087L 20.8646 150.058L 22.5824 150.026L 24.3002 149.993L 26.018 149.957L 27.7358 149.919L 29.4536 149.878L 31.1714 149.835L 32.8892 149.789L 34.607 149.74L 36.3248 149.687L 38.0426 149.631L 39.7604 149.571L 41.4782 149.508L 43.196 149.44L 44.9138 149.368L 46.6316 149.291L 48.3494 149.208L 50.0672 149.121L 51.785 149.027L 53.5028 148.928L 55.2206 148.822L 56.9384 148.708L 58.6562 148.588L 60.374 148.459L 62.0918 148.322L 63.8096 148.176L 65.5274 148.02L 67.2452 147.854L 68.963 147.677L 70.6808 147.488L 72.3986 147.286L 74.1164 147.072L 75.8342 146.843L 77.552 146.599L 79.2699 146.339L 80.9877 146.062L 82.7055 145.766L 84.4233 145.451L 86.1411 145.115L 87.8589 144.757L 89.5767 144.375L 91.2945 143.968L 93.0123 143.534L 94.7301 143.071L 96.4479 142.578L 98.1657 142.052L 99.8835 141.492L 101.601 140.894L 103.319 140.257L 105.037 139.578L 106.755 138.854L 108.472 138.082L 110.19 137.259L 111.908 136.381L 113.626 135.446L 115.344 134.449L 117.062 133.385L 118.779 132.252L 120.497 131.044L 122.215 129.756L 123.933 128.382L 125.651 126.918L 127.368 125.357L 129.086 123.693L 130.804 121.919L 132.522 120.028L 134.24 118.012L 135.957 115.863L 137.675 113.571L 139.393 111.128L 141.111 108.524L 142.829 105.747L 144.546 102.787L 146.264 99.6312L 147.982 96.2669L 149.7 92.6803L 151.418 88.8566L 153.135 84.7802L 154.853 80.4343L 156.571 75.8013L 158.289 70.862L 160.007 65.5963L 161.724 59.9826L 163.442 53.9978L 165.16 47.6175L 166.878 40.8155L 168.596 33.5639L 170.313 25.8331L 172.031 17.5913' fill='none' stroke='#000000' stroke-linecap='round' stroke-linejoin='round' stroke-miterlimit='10.0375' stroke-width='0.501875'/>
</g>
<g transform='matrix(0.996264 0 0 0.996264 185.013 203.83)'>
<circle cx='129.086' cy='123.693' fill='#0000ff' r='1.50562'/>
</g>
<g transform='matrix(0.996264 0 0 0.996264 185.013 203.83)'>
<circle cx='155.927' cy='77.5735' fill='#0000ff' r='1.50562'/>
</g>
<use x='297.658682' y='283.627255' xlink:href='#g3-101'/>
<use x='305.231921' y='363.981991' xlink:href='#g3-48'/>
<g transform='matrix(0.996264 0 0 0.996264 185.013 203.83)'>
<path d='M 155.927 77.5735L 155.927 150.534' fill='none' stroke='#0000ff' stroke-dasharray='0,2.02617' stroke-linecap='round' stroke-linejoin='round' stroke-miterlimit='10.0375' stroke-width='0.501875'/>
</g>
<g transform='matrix(0.996264 0 0 0.996264 185.013 203.83)'>
<path d='M 155.927 77.5735L 129.086 77.5735' fill='none' stroke='#0000ff' stroke-dasharray='0,2.06415' stroke-linecap='round' stroke-linejoin='round' stroke-miterlimit='10.0375' stroke-width='0.501875'/>
</g>
<g transform='matrix(0.996264 0 0 0.996264 185.013 203.83)'>
<path d='M 88.8251 163.954L 169.347 83.4323' fill='none' stroke='#0000ff' stroke-dasharray='3.92673,3.92673' stroke-linecap='round' stroke-linejoin='round' stroke-miterlimit='10.0375' stroke-width='0.501875'/>
</g>
<g fill='#00f'>
<use x='357.318123' y='302.950681' xlink:href='#g2-121'/>
<use x='366.775604' y='302.950681' xlink:href='#g3-61'/>
<use x='379.201085' y='302.950681' xlink:href='#g3-49'/>
<use x='387.710739' y='302.950681' xlink:href='#g3-43'/>
<use x='399.472053' y='302.950681' xlink:href='#g2-120'/>
</g>
<use x='357.318123' y='249.502582' xlink:href='#g2-121'/>
<use x='366.775604' y='249.502582' xlink:href='#g3-61'/>
<use x='379.201085' y='249.502582' xlink:href='#g3-101'/>
<use x='384.403743' y='245.164146' xlink:href='#g1-120'/>
</g>
</svg>