<?xml version='1.0' encoding='UTF-8'?>
<!-- This file was generated by dvisvgm 2.13.1 -->
<svg version='1.1' xmlns='http://www.w3.org/2000/svg' xmlns:xlink='http://www.w3.org/1999/xlink' width='226.771654pt' height='104.602849pt' viewBox='57.374929 54.108268 226.771654 104.602849'>
<defs>
<path id='g0-0' d='M7.878456-2.749689C8.081694-2.749689 8.296887-2.749689 8.296887-2.988792S8.081694-3.227895 7.878456-3.227895H1.41071C1.207472-3.227895 .992279-3.227895 .992279-2.988792S1.207472-2.749689 1.41071-2.749689H7.878456Z'/>
<path id='g0-49' d='M6.073225-3.239851C5.427646-4.052802 5.284184-4.23213 4.913574-4.531009C4.244085-5.068991 3.574595-5.284184 2.964882-5.284184C1.566127-5.284184 .657534-3.969116 .657534-2.570361C.657534-1.195517 1.542217 .131507 2.917061 .131507S5.284184-.956413 5.869988-1.912827C6.515567-1.099875 6.659029-.920548 7.029639-.621669C7.699128-.083686 8.368618 .131507 8.978331 .131507C10.377086 .131507 11.285679-1.183562 11.285679-2.582316C11.285679-3.957161 10.400996-5.284184 9.026152-5.284184S6.659029-4.196264 6.073225-3.239851ZM6.38406-2.833375C6.874222-3.694147 7.758904-4.901619 9.109838-4.901619C10.377086-4.901619 11.022665-3.658281 11.022665-2.582316C11.022665-1.41071 10.221669-.442341 9.169614-.442341C8.476214-.442341 7.938232-.944458 7.687173-1.195517C7.388294-1.518306 7.113325-1.888917 6.38406-2.833375ZM5.559153-2.319303C5.068991-1.458531 4.184309-.251059 2.833375-.251059C1.566127-.251059 .920548-1.494396 .920548-2.570361C.920548-3.741968 1.721544-4.710336 2.773599-4.710336C3.466999-4.710336 4.004981-4.208219 4.25604-3.957161C4.554919-3.634371 4.829888-3.263761 5.559153-2.319303Z'/>
<path id='g2-40' d='M3.88543 2.905106C3.88543 2.86924 3.88543 2.84533 3.682192 2.642092C2.486675 1.43462 1.817186-.537983 1.817186-2.976837C1.817186-5.296139 2.379078-7.292653 3.765878-8.703362C3.88543-8.810959 3.88543-8.834869 3.88543-8.870735C3.88543-8.942466 3.825654-8.966376 3.777833-8.966376C3.622416-8.966376 2.642092-8.105604 2.056289-6.933998C1.446575-5.726526 1.171606-4.447323 1.171606-2.976837C1.171606-1.912827 1.338979-.490162 1.960648 .789041C2.666002 2.223661 3.646326 3.000747 3.777833 3.000747C3.825654 3.000747 3.88543 2.976837 3.88543 2.905106Z'/>
<path id='g2-41' d='M3.371357-2.976837C3.371357-3.88543 3.251806-5.36787 2.582316-6.75467C1.876961-8.18929 .896638-8.966376 .765131-8.966376C.71731-8.966376 .657534-8.942466 .657534-8.870735C.657534-8.834869 .657534-8.810959 .860772-8.607721C2.056289-7.400249 2.725778-5.427646 2.725778-2.988792C2.725778-.669489 2.163885 1.327024 .777086 2.737733C.657534 2.84533 .657534 2.86924 .657534 2.905106C.657534 2.976837 .71731 3.000747 .765131 3.000747C.920548 3.000747 1.900872 2.139975 2.486675 .968369C3.096389-.251059 3.371357-1.542217 3.371357-2.976837Z'/>
<path id='g2-43' d='M4.770112-2.761644H8.069738C8.237111-2.761644 8.452304-2.761644 8.452304-2.976837C8.452304-3.203985 8.249066-3.203985 8.069738-3.203985H4.770112V-6.503611C4.770112-6.670984 4.770112-6.886177 4.554919-6.886177C4.327771-6.886177 4.327771-6.682939 4.327771-6.503611V-3.203985H1.028144C.860772-3.203985 .645579-3.203985 .645579-2.988792C.645579-2.761644 .848817-2.761644 1.028144-2.761644H4.327771V.537983C4.327771 .705355 4.327771 .920548 4.542964 .920548C4.770112 .920548 4.770112 .71731 4.770112 .537983V-2.761644Z'/>
<path id='g2-48' d='M5.355915-3.825654C5.355915-4.817933 5.296139-5.786301 4.865753-6.694894C4.375592-7.687173 3.514819-7.950187 2.929016-7.950187C2.235616-7.950187 1.3868-7.603487 .944458-6.611208C.609714-5.858032 .490162-5.116812 .490162-3.825654C.490162-2.666002 .573848-1.793275 1.004234-.944458C1.470486-.035866 2.295392 .251059 2.917061 .251059C3.957161 .251059 4.554919-.37061 4.901619-1.06401C5.332005-1.960648 5.355915-3.132254 5.355915-3.825654ZM2.917061 .011955C2.534496 .011955 1.75741-.203238 1.530262-1.506351C1.398755-2.223661 1.398755-3.132254 1.398755-3.969116C1.398755-4.94944 1.398755-5.834122 1.590037-6.539477C1.793275-7.340473 2.402989-7.711083 2.917061-7.711083C3.371357-7.711083 4.064757-7.436115 4.291905-6.40797C4.447323-5.726526 4.447323-4.782067 4.447323-3.969116C4.447323-3.16812 4.447323-2.259527 4.315816-1.530262C4.088667-.215193 3.335492 .011955 2.917061 .011955Z'/>
<path id='g2-49' d='M3.443088-7.663263C3.443088-7.938232 3.443088-7.950187 3.203985-7.950187C2.917061-7.627397 2.319303-7.185056 1.08792-7.185056V-6.838356C1.362889-6.838356 1.960648-6.838356 2.618182-7.149191V-.920548C2.618182-.490162 2.582316-.3467 1.530262-.3467H1.159651V0C1.482441-.02391 2.642092-.02391 3.036613-.02391S4.578829-.02391 4.901619 0V-.3467H4.531009C3.478954-.3467 3.443088-.490162 3.443088-.920548V-7.663263Z'/>
<path id='g2-101' d='M4.578829-2.773599C4.841843-2.773599 4.865753-2.773599 4.865753-3.000747C4.865753-4.208219 4.220174-5.332005 2.773599-5.332005C1.41071-5.332005 .358655-4.100623 .358655-2.618182C.358655-1.0401 1.578082 .119552 2.905106 .119552C4.327771 .119552 4.865753-1.171606 4.865753-1.422665C4.865753-1.494396 4.805978-1.542217 4.734247-1.542217C4.638605-1.542217 4.614695-1.482441 4.590785-1.422665C4.27995-.418431 3.478954-.143462 2.976837-.143462S1.267248-.478207 1.267248-2.546451V-2.773599H4.578829ZM1.279203-3.000747C1.374844-4.877709 2.426899-5.092902 2.761644-5.092902C4.040847-5.092902 4.112578-3.407223 4.124533-3.000747H1.279203Z'/>
<path id='g2-112' d='M2.929016 1.972603C2.163885 1.972603 2.020423 1.972603 2.020423 1.43462V-.645579C2.235616-.3467 2.725778 .119552 3.490909 .119552C4.865753 .119552 6.073225-1.0401 6.073225-2.582316C6.073225-4.100623 4.94944-5.272229 3.646326-5.272229C2.594271-5.272229 2.032379-4.519054 1.996513-4.471233V-5.272229L.334745-5.140722V-4.794022C1.171606-4.794022 1.243337-4.710336 1.243337-4.184309V1.43462C1.243337 1.972603 1.111831 1.972603 .334745 1.972603V2.319303C.645579 2.295392 1.291158 2.295392 1.625903 2.295392C1.972603 2.295392 2.618182 2.295392 2.929016 2.319303V1.972603ZM2.020423-3.813699C2.020423-4.040847 2.020423-4.052802 2.15193-4.244085C2.510585-4.782067 3.096389-5.009215 3.550685-5.009215C4.447323-5.009215 5.164633-3.921295 5.164633-2.582316C5.164633-1.159651 4.351681-.119552 3.431133-.119552C3.060523-.119552 2.713823-.274969 2.47472-.502117C2.199751-.777086 2.020423-1.016189 2.020423-1.350934V-3.813699Z'/>
<path id='g2-120' d='M3.347447-2.82142C3.694147-3.275716 4.196264-3.921295 4.423412-4.172354C4.913574-4.722291 5.475467-4.805978 5.858032-4.805978V-5.152677C5.34396-5.128767 5.32005-5.128767 4.853798-5.128767C4.399502-5.128767 4.375592-5.128767 3.777833-5.152677V-4.805978C3.93325-4.782067 4.124533-4.710336 4.124533-4.435367C4.124533-4.23213 4.016936-4.100623 3.945205-4.004981L3.180075-3.036613L2.247572-4.267995C2.211706-4.315816 2.139975-4.423412 2.139975-4.507098C2.139975-4.578829 2.199751-4.794022 2.558406-4.805978V-5.152677C2.259527-5.128767 1.649813-5.128767 1.327024-5.128767C.932503-5.128767 .908593-5.128767 .179328-5.152677V-4.805978C.789041-4.805978 1.016189-4.782067 1.267248-4.459278L2.666002-2.630137C2.689913-2.606227 2.737733-2.534496 2.737733-2.49863S1.80523-1.291158 1.685679-1.135741C1.159651-.490162 .633624-.358655 .119552-.3467V0C.573848-.02391 .597758-.02391 1.111831-.02391C1.566127-.02391 1.590037-.02391 2.187796 0V-.3467C1.900872-.382565 1.853051-.561893 1.853051-.729265C1.853051-.920548 1.936737-1.016189 2.056289-1.171606C2.235616-1.422665 2.630137-1.912827 2.917061-2.283437L3.897385-1.004234C4.100623-.74122 4.100623-.71731 4.100623-.645579C4.100623-.549938 4.004981-.358655 3.682192-.3467V0C3.993026-.02391 4.578829-.02391 4.913574-.02391C5.308095-.02391 5.332005-.02391 6.049315 0V-.3467C5.415691-.3467 5.200498-.37061 4.913574-.753176L3.347447-2.82142Z'/>
<path id='g1-120' d='M5.66675-4.877709C5.284184-4.805978 5.140722-4.519054 5.140722-4.291905C5.140722-4.004981 5.36787-3.90934 5.535243-3.90934C5.893898-3.90934 6.144956-4.220174 6.144956-4.542964C6.144956-5.045081 5.571108-5.272229 5.068991-5.272229C4.339726-5.272229 3.93325-4.554919 3.825654-4.327771C3.550685-5.224408 2.809465-5.272229 2.594271-5.272229C1.374844-5.272229 .729265-3.706102 .729265-3.443088C.729265-3.395268 .777086-3.335492 .860772-3.335492C.956413-3.335492 .980324-3.407223 1.004234-3.455044C1.41071-4.782067 2.211706-5.033126 2.558406-5.033126C3.096389-5.033126 3.203985-4.531009 3.203985-4.244085C3.203985-3.981071 3.132254-3.706102 2.988792-3.132254L2.582316-1.494396C2.402989-.777086 2.056289-.119552 1.422665-.119552C1.362889-.119552 1.06401-.119552 .812951-.274969C1.243337-.358655 1.338979-.71731 1.338979-.860772C1.338979-1.099875 1.159651-1.243337 .932503-1.243337C.645579-1.243337 .334745-.992279 .334745-.609714C.334745-.107597 .896638 .119552 1.41071 .119552C1.984558 .119552 2.391034-.334745 2.642092-.824907C2.833375-.119552 3.431133 .119552 3.873474 .119552C5.092902 .119552 5.738481-1.446575 5.738481-1.709589C5.738481-1.769365 5.69066-1.817186 5.618929-1.817186C5.511333-1.817186 5.499377-1.75741 5.463512-1.661768C5.140722-.609714 4.447323-.119552 3.90934-.119552C3.490909-.119552 3.263761-.430386 3.263761-.920548C3.263761-1.183562 3.311582-1.374844 3.502864-2.163885L3.921295-3.789788C4.100623-4.507098 4.507098-5.033126 5.057036-5.033126C5.080946-5.033126 5.415691-5.033126 5.66675-4.877709Z'/>
</defs>
<g id='page1'>
<g transform='matrix(0.996264 0 0 0.996264 57.3749 54.1083)'>
<path d='M 0.969101 0.250937L 227.371 0.250937L 227.371 104.744L 0.969101 104.744L 0.969101 0.250937Z' fill='none' stroke='#000000' stroke-linecap='round' stroke-linejoin='round' stroke-miterlimit='10.0375' stroke-width='0.501875'/>
</g>
<g transform='matrix(0.996264 0 0 0.996264 57.3749 54.1083)'>
<path d='M 0.969101 17.6665L 227.371 17.6665' fill='none' stroke='#000000' stroke-linecap='round' stroke-linejoin='round' stroke-miterlimit='10.0375' stroke-width='0.501875'/>
</g>
<g transform='matrix(0.996264 0 0 0.996264 57.3749 54.1083)'>
<path d='M 0.969101 35.082L 227.371 35.082' fill='none' stroke='#000000' stroke-linecap='round' stroke-linejoin='round' stroke-miterlimit='10.0375' stroke-width='0.501875'/>
</g>
<g transform='matrix(0.996264 0 0 0.996264 57.3749 54.1083)'>
<path d='M 35.8002 0.250937L 35.8002 104.744' fill='none' stroke='#000000' stroke-linecap='round' stroke-linejoin='round' stroke-miterlimit='10.0375' stroke-width='0.501875'/>
</g>
<use x='72.368663' y='65.547182' xlink:href='#g1-120'/>
<use x='58.874268' y='83.312775' xlink:href='#g2-101'/>
<use x='64.076926' y='83.312775' xlink:href='#g2-120'/>
<use x='70.255083' y='83.312775' xlink:href='#g2-112'/>
<use x='76.758405' y='83.312775' xlink:href='#g2-40'/>
<use x='81.310731' y='83.312775' xlink:href='#g1-120'/>
<use x='87.962818' y='83.312775' xlink:href='#g2-41'/>
<use x='66.752638' y='125.11152' xlink:href='#g2-101'/>
<use x='71.955296' y='125.11152' xlink:href='#g2-120'/>
<use x='78.133452' y='125.11152' xlink:href='#g2-112'/>
<use x='96.631726' y='65.962297' xlink:href='#g0-0'/>
<use x='105.930223' y='65.962297' xlink:href='#g0-49'/>
<use x='159.520587' y='66.825713' xlink:href='#g2-48'/>
<use x='211.572007' y='66.825713' xlink:href='#g2-49'/>
<use x='259.253994' y='65.962267' xlink:href='#g2-43'/>
<use x='268.358645' y='65.962267' xlink:href='#g0-49'/>
<use x='183.920467' y='83.312745' xlink:href='#g2-43'/>
<g transform='matrix(0.996264 0 0 0.996264 57.3749 54.1083)'>
<path d='M 216.76 40.986L 39.2833 101.261' fill='none' stroke='#000000' stroke-linecap='round' stroke-linejoin='round' stroke-miterlimit='10.0375' stroke-width='0.501875'/>
</g>
<g transform='matrix(0.996264 0 0 0.996264 57.3749 54.1083)'>
<path d='M 223.888 38.5651C 220.293 39.4453 216.559 39.5938 212.906 39.0018L 216.76 40.986L 216.76 40.986L 214.911 44.907C 217.448 42.2128 220.501 40.0561 223.888 38.5651Z' fill='#000000'/>
</g>
<g transform='matrix(0.996264 0 0 0.996264 57.3749 54.1083)'>
<path d='M 223.888 38.5651C 220.293 39.4453 216.559 39.5938 212.906 39.0018L 216.76 40.986L 216.76 40.986L 214.911 44.907C 217.448 42.2128 220.501 40.0561 223.888 38.5651Z' fill='none' stroke='#000000' stroke-linecap='round' stroke-linejoin='round' stroke-miterlimit='10.0375' stroke-width='0.501875'/>
</g>
<use x='159.520587' y='128.788847' xlink:href='#g2-49'/>
<use x='211.897173' y='111.438368' xlink:href='#g2-101'/>
</g>
</svg>