<?xml version='1.0' encoding='UTF-8'?>
<!-- This file was generated by dvisvgm 2.13.1 -->
<svg version='1.1' xmlns='http://www.w3.org/2000/svg' xmlns:xlink='http://www.w3.org/1999/xlink' width='283.464567pt' height='246.670059pt' viewBox='212.652985 176.127843 283.464567 246.670059'>
<defs>
<path id='g4-50' d='M1.265255-.767123L2.321295-1.793275C3.875467-3.16812 4.473225-3.706102 4.473225-4.702366C4.473225-5.838107 3.576588-6.635118 2.361146-6.635118C1.235367-6.635118 .498132-5.718555 .498132-4.83188C.498132-4.273973 .996264-4.273973 1.026152-4.273973C1.195517-4.273973 1.544209-4.393524 1.544209-4.801993C1.544209-5.061021 1.364882-5.32005 1.016189-5.32005C.936488-5.32005 .916563-5.32005 .886675-5.310087C1.115816-5.957659 1.653798-6.326276 2.231631-6.326276C3.138232-6.326276 3.566625-5.519303 3.566625-4.702366C3.566625-3.905355 3.068493-3.118306 2.520548-2.500623L.607721-.368618C.498132-.259029 .498132-.239103 .498132 0H4.194271L4.473225-1.733499H4.224159C4.174346-1.43462 4.104608-.996264 4.004981-.846824C3.935243-.767123 3.277709-.767123 3.058531-.767123H1.265255Z'/>
<path id='g4-51' d='M2.889166-3.506849C3.706102-3.775841 4.283935-4.473225 4.283935-5.260274C4.283935-6.07721 3.407223-6.635118 2.450809-6.635118C1.444583-6.635118 .687422-6.03736 .687422-5.280199C.687422-4.951432 .9066-4.762142 1.195517-4.762142C1.504359-4.762142 1.703611-4.98132 1.703611-5.270237C1.703611-5.768369 1.235367-5.768369 1.085928-5.768369C1.39477-6.256538 2.052304-6.386052 2.410959-6.386052C2.819427-6.386052 3.367372-6.166874 3.367372-5.270237C3.367372-5.150685 3.347447-4.572852 3.088418-4.134496C2.789539-3.656289 2.450809-3.626401 2.201743-3.616438C2.122042-3.606476 1.882939-3.58655 1.8132-3.58655C1.733499-3.576588 1.663761-3.566625 1.663761-3.466999C1.663761-3.35741 1.733499-3.35741 1.902864-3.35741H2.34122C3.158157-3.35741 3.526775-2.67995 3.526775-1.703611C3.526775-.348692 2.839352-.059776 2.400996-.059776C1.972603-.059776 1.225405-.229141 .876712-.816936C1.225405-.767123 1.534247-.986301 1.534247-1.364882C1.534247-1.723537 1.265255-1.92279 .976339-1.92279C.737235-1.92279 .418431-1.783313 .418431-1.344956C.418431-.438356 1.344956 .219178 2.430884 .219178C3.646326 .219178 4.552927-.687422 4.552927-1.703611C4.552927-2.520548 3.92528-3.297634 2.889166-3.506849Z'/>
<path id='g2-48' d='M2.520548-4.732254C2.570361-4.851806 2.610212-4.941469 2.610212-5.041096C2.610212-5.330012 2.351183-5.569116 2.042341-5.569116C1.763387-5.569116 1.58406-5.379826 1.514321-5.120797L.328767-.767123C.328767-.747198 .288917-.637609 .288917-.627646C.288917-.518057 .547945-.448319 .627646-.448319C.687422-.448319 .697385-.478207 .757161-.607721L2.520548-4.732254Z'/>
<path id='g1-40' d='M4.662514 3.486126C4.662514 3.443087 4.662514 3.414395 4.418628 3.170509C2.984009 1.721543 2.180622-.645579 2.180622-3.572203C2.180622-6.355365 2.854893-8.751179 4.519052-10.44403C4.662514-10.573146 4.662514-10.601839 4.662514-10.644877C4.662514-10.730954 4.590783-10.759647 4.533398-10.759647C4.346897-10.759647 3.170509-9.726721 2.467546-8.320793C1.73589-6.871828 1.405927-5.336785 1.405927-3.572203C1.405927-2.295391 1.606774-.588194 2.352776 .946849C3.199202 2.668392 4.37559 3.600895 4.533398 3.600895C4.590783 3.600895 4.662514 3.572203 4.662514 3.486126Z'/>
<path id='g1-41' d='M4.045627-3.572203C4.045627-4.662514 3.902165-6.441442 3.098778-8.105601C2.252353-9.827144 1.075965-10.759647 .918157-10.759647C.860772-10.759647 .789041-10.730954 .789041-10.644877C.789041-10.601839 .789041-10.573146 1.032926-10.329261C2.467546-8.880295 3.270933-6.513173 3.270933-3.586549C3.270933-.803387 2.596661 1.592428 .932503 3.285279C.789041 3.414395 .789041 3.443087 .789041 3.486126C.789041 3.572203 .860772 3.600895 .918157 3.600895C1.104657 3.600895 2.281045 2.567969 2.984009 1.162042C3.715665-.30127 4.045627-1.850659 4.045627-3.572203Z'/>
<path id='g1-43' d='M5.724132-3.313971H9.683682C9.884529-3.313971 10.14276-3.313971 10.14276-3.572203C10.14276-3.84478 9.898875-3.84478 9.683682-3.84478H5.724132V-7.80433C5.724132-8.005177 5.724132-8.263409 5.465901-8.263409C5.193323-8.263409 5.193323-8.019523 5.193323-7.80433V-3.84478H1.233773C1.032926-3.84478 .774695-3.84478 .774695-3.586549C.774695-3.313971 1.01858-3.313971 1.233773-3.313971H5.193323V.645579C5.193323 .846426 5.193323 1.104657 5.451554 1.104657C5.724132 1.104657 5.724132 .860772 5.724132 .645579V-3.313971Z'/>
<path id='g1-48' d='M6.427096-4.590783C6.427096-5.781517 6.355365-6.943559 5.838902-8.03387C5.250708-9.224604 4.217782-9.54022 3.514818-9.54022C2.682739-9.54022 1.664159-9.12418 1.133349-7.933446C.731656-7.029636 .588194-6.140172 .588194-4.590783C.588194-3.199202 .688617-2.151929 1.20508-1.133349C1.764582-.043039 2.75447 .30127 3.500472 .30127C4.748591 .30127 5.465901-.444732 5.88194-1.276811C6.398403-2.352776 6.427096-3.758703 6.427096-4.590783ZM3.500472 .014346C3.041393 .014346 2.108891-.243885 1.836313-1.807621C1.678505-2.668392 1.678505-3.758703 1.678505-4.762937C1.678505-5.939325 1.678505-7.000943 1.908044-7.847369C2.151929-8.808564 2.883585-9.253296 3.500472-9.253296C4.045627-9.253296 4.877707-8.923334 5.150284-7.689561C5.336785-6.871828 5.336785-5.738478 5.336785-4.762937C5.336785-3.801742 5.336785-2.711431 5.178977-1.836313C4.906399-.258232 4.002589 .014346 3.500472 .014346Z'/>
<path id='g1-99' d='M5.193323-5.308092C5.021168-5.308092 4.490359-5.308092 4.490359-4.719898C4.490359-4.37559 4.734245-4.131704 5.078553-4.131704C5.408516-4.131704 5.681093-4.332551 5.681093-4.748591C5.681093-5.709786 4.67686-6.398403 3.514818-6.398403C1.836313-6.398403 .502117-4.906399 .502117-3.098778C.502117-1.262465 1.879352 .143462 3.500472 .143462C5.39417 .143462 5.824555-1.578082 5.824555-1.707197S5.724132-1.836313 5.681093-1.836313C5.551978-1.836313 5.537632-1.793274 5.494593-1.62112C5.178977-.60254 4.404282-.172154 3.629588-.172154C2.75447-.172154 1.592428-.932503 1.592428-3.113124C1.592428-5.494593 2.811854-6.082787 3.529164-6.082787C4.07432-6.082787 4.86336-5.867594 5.193323-5.308092Z'/>
<path id='g1-105' d='M2.496238-8.837257C2.496238-9.210258 2.194968-9.54022 1.793274-9.54022C1.420273-9.54022 1.104657-9.23895 1.104657-8.851603C1.104657-8.421217 1.448966-8.148639 1.793274-8.148639C2.238007-8.148639 2.496238-8.52164 2.496238-8.837257ZM.516463-6.168864V-5.752824C1.43462-5.752824 1.563735-5.666747 1.563735-4.963784V-1.061618C1.563735-.41604 1.405927-.41604 .473424-.41604V0C.875118-.028692 1.563735-.028692 1.979775-.028692C2.137583-.028692 2.969663-.028692 3.457433 0V-.41604C2.52493-.41604 2.467546-.487771 2.467546-1.047272V-6.326672L.516463-6.168864Z'/>
<path id='g1-110' d='M6.384057-3.486126C6.384057-4.820322 6.384057-5.222015 6.054095-5.681093C5.638055-6.240595 4.963784-6.326672 4.476013-6.326672C3.084432-6.326672 2.539277-5.135938 2.424507-4.849014H2.410161V-6.326672L.459078-6.168864V-5.752824C1.43462-5.752824 1.549389-5.652401 1.549389-4.949438V-1.061618C1.549389-.41604 1.391581-.41604 .459078-.41604V0C.832079-.028692 1.606774-.028692 2.008467-.028692C2.424507-.028692 3.199202-.028692 3.572203 0V-.41604C2.654046-.41604 2.481892-.41604 2.481892-1.061618V-3.730011C2.481892-5.236361 3.471779-6.039748 4.361243-6.039748S5.451554-5.308092 5.451554-4.432974V-1.061618C5.451554-.41604 5.293746-.41604 4.361243-.41604V0C4.734245-.028692 5.508939-.028692 5.910633-.028692C6.326672-.028692 7.101367-.028692 7.474368 0V-.41604C6.757058-.41604 6.398403-.41604 6.384057-.846426V-3.486126Z'/>
<path id='g1-111' d='M6.584904-3.070086C6.584904-4.920745 5.178977-6.398403 3.514818-6.398403C1.793274-6.398403 .430386-4.877707 .430386-3.070086C.430386-1.233773 1.865005 .143462 3.500472 .143462C5.193323 .143462 6.584904-1.262465 6.584904-3.070086ZM3.514818-.172154C2.984009-.172154 2.33843-.401693 1.92239-1.104657C1.535043-1.750236 1.520697-2.596661 1.520697-3.199202C1.520697-3.744357 1.520697-4.619475 1.965429-5.265054C2.367122-5.88194 2.998355-6.111479 3.500472-6.111479C4.059973-6.111479 4.662514-5.853248 5.049861-5.293746C5.494593-4.633821 5.494593-3.730011 5.494593-3.199202C5.494593-2.697085 5.494593-1.807621 5.121592-1.133349C4.719898-.444732 4.059973-.172154 3.514818-.172154Z'/>
<path id='g1-115' d='M4.705552-6.068441C4.705552-6.326672 4.705552-6.398403 4.56209-6.398403C4.447321-6.398403 4.174743-6.082787 4.07432-5.953671C3.629588-6.312326 3.184855-6.398403 2.725777-6.398403C.989888-6.398403 .473424-5.451554 .473424-4.662514C.473424-4.504705 .473424-4.002589 1.01858-3.500472C1.477658-3.098778 1.965429-2.998355 2.625354-2.869239C3.414395-2.711431 3.600895-2.668392 3.95955-2.381468C4.217782-2.166276 4.404282-1.850659 4.404282-1.448966C4.404282-.832079 4.045627-.143462 2.783162-.143462C1.836313-.143462 1.147696-.688617 .832079-2.123237C.774695-2.381468 .774695-2.395815 .760348-2.410161C.731656-2.467546 .674271-2.467546 .631233-2.467546C.473424-2.467546 .473424-2.395815 .473424-2.137583V-.186501C.473424 .071731 .473424 .143462 .616886 .143462C.688617 .143462 .702964 .129116 .946849-.172154C1.01858-.272578 1.01858-.30127 1.233773-.530809C1.778928 .143462 2.553623 .143462 2.797508 .143462C4.303859 .143462 5.049861-.688617 5.049861-1.821967C5.049861-2.596661 4.576436-3.05574 4.447321-3.184855C3.930858-3.629588 3.54351-3.715665 2.596661-3.887819C2.166276-3.973896 1.119003-4.174743 1.119003-5.035515C1.119003-5.480247 1.420273-6.140172 2.711431-6.140172C4.275166-6.140172 4.361243-4.805976 4.389936-4.361243C4.404282-4.246474 4.504705-4.246474 4.547744-4.246474C4.705552-4.246474 4.705552-4.318205 4.705552-4.576436V-6.068441Z'/>
<path id='g3-25' d='M2.6401-3.716065H3.765878C3.437111-2.241594 3.347447-1.8132 3.347447-1.145704C3.347447-.996264 3.347447-.727273 3.427148-.388543C3.526775 .049813 3.636364 .109589 3.785803 .109589C3.985056 .109589 4.194271-.069738 4.194271-.268991C4.194271-.328767 4.194271-.348692 4.134496-.488169C3.845579-1.205479 3.845579-1.853051 3.845579-2.132005C3.845579-2.660025 3.915318-3.198007 4.024907-3.716065H5.160648C5.290162-3.716065 5.648817-3.716065 5.648817-4.054795C5.648817-4.293898 5.439601-4.293898 5.250311-4.293898H1.912827C1.693649-4.293898 1.315068-4.293898 .876712-3.825654C.52802-3.437111 .268991-2.978829 .268991-2.929016C.268991-2.919054 .268991-2.82939 .388543-2.82939C.468244-2.82939 .488169-2.86924 .547945-2.948941C1.036115-3.716065 1.613948-3.716065 1.8132-3.716065H2.381071C2.062267-2.510585 1.524284-1.305106 1.105853-.398506C1.026152-.249066 1.026152-.229141 1.026152-.159402C1.026152 .029888 1.185554 .109589 1.315068 .109589C1.613948 .109589 1.693649-.169365 1.8132-.537983C1.952677-.996264 1.952677-1.016189 2.082192-1.514321L2.6401-3.716065Z'/>
<path id='g0-25' d='M3.715665-5.408516H5.336785C4.949438-3.801742 4.705552-2.75447 4.705552-1.606774C4.705552-1.405927 4.705552 .143462 5.293746 .143462C5.595016 .143462 5.853248-.129116 5.853248-.373001C5.853248-.444732 5.853248-.473424 5.752824-.688617C5.365477-1.678505 5.365477-2.912278 5.365477-3.012701C5.365477-3.098778 5.365477-4.117358 5.666747-5.408516H7.273521C7.460022-5.408516 7.933446-5.408516 7.933446-5.867594C7.933446-6.18321 7.660868-6.18321 7.402637-6.18321H2.682739C2.352776-6.18321 1.865005-6.18321 1.20508-5.480247C.832079-5.064207 .373001-4.303859 .373001-4.217782S.444732-4.103012 .530809-4.103012C.631233-4.103012 .645579-4.146051 .71731-4.232128C1.463312-5.408516 2.209314-5.408516 2.567969-5.408516H3.385702C3.070086-4.332551 2.711431-3.084432 1.535043-.573848C1.420273-.344309 1.420273-.315616 1.420273-.229539C1.420273 .071731 1.678505 .143462 1.807621 .143462C2.22366 .143462 2.33843-.229539 2.510584-.832079C2.740123-1.563735 2.740123-1.592428 2.883585-2.166276L3.715665-5.408516Z'/>
<path id='g0-77' d='M13.026346-8.751179C13.155461-9.23895 13.184154-9.382412 14.202734-9.382412C14.475311-9.382412 14.604427-9.382412 14.604427-9.65499C14.604427-9.798452 14.504004-9.798452 14.231426-9.798452H12.509883C12.151228-9.798452 12.136882-9.784105 11.979073-9.554566L6.742712-1.276811L5.666747-9.482835C5.623709-9.798452 5.609363-9.798452 5.236361-9.798452H3.457433C3.184855-9.798452 3.05574-9.798452 3.05574-9.525874C3.05574-9.382412 3.184855-9.382412 3.400048-9.382412C4.275166-9.382412 4.275166-9.267642 4.275166-9.109834C4.275166-9.081142 4.275166-8.995065 4.217782-8.779872L2.381468-1.463312C2.209314-.774695 1.879352-.459078 .918157-.41604C.875118-.41604 .702964-.401693 .702964-.157808C.702964 0 .832079 0 .889464 0C1.176388 0 1.908044-.028692 2.194968-.028692H2.883585C3.084432-.028692 3.328317 0 3.529164 0C3.629588 0 3.787396 0 3.787396-.272578C3.787396-.401693 3.643934-.41604 3.586549-.41604C3.113124-.430386 2.654046-.516463 2.654046-1.032926C2.654046-1.176388 2.654046-1.190734 2.711431-1.391581L4.691206-9.296335H4.705552L5.896286-.387347C5.939325-.043039 5.953671 0 6.082787 0C6.240595 0 6.312326-.11477 6.384057-.243885L12.151228-9.368066H12.165574L10.085376-1.061618C9.95626-.559502 9.927567-.41604 8.923334-.41604C8.650756-.41604 8.507294-.41604 8.507294-.157808C8.507294 0 8.63641 0 8.722487 0C8.966372 0 9.253296-.028692 9.497182-.028692H11.190033C11.433918-.028692 11.735188 0 11.979073 0C12.093843 0 12.251651 0 12.251651-.272578C12.251651-.41604 12.122535-.41604 11.907342-.41604C11.032224-.41604 11.032224-.530809 11.032224-.674271C11.032224-.688617 11.032224-.789041 11.060917-.90381L13.026346-8.751179Z'/>
<path id='g0-79' d='M10.415338-6.283634C10.415338-8.650756 8.865949-10.099722 6.857482-10.099722C3.787396-10.099722 .688617-6.800097 .688617-3.486126C.688617-1.233773 2.180622 .30127 4.26082 .30127C7.273521 .30127 10.415338-2.840547 10.415338-6.283634ZM4.346897-.028692C3.170509-.028692 1.92239-.889464 1.92239-3.127471C1.92239-4.432974 2.395815-6.570558 3.572203-8.005177C4.619475-9.267642 5.824555-9.784105 6.785751-9.784105C8.048216-9.784105 9.267642-8.865949 9.267642-6.800097C9.267642-5.523285 8.722487-3.529164 7.761292-2.166276C6.71402-.702964 5.408516-.028692 4.346897-.028692Z'/>
<path id='g0-120' d='M6.800097-5.853248C6.341018-5.767171 6.168864-5.422862 6.168864-5.150284C6.168864-4.805976 6.441442-4.691206 6.642289-4.691206C7.072674-4.691206 7.373945-5.064207 7.373945-5.451554C7.373945-6.054095 6.685327-6.326672 6.082787-6.326672C5.207669-6.326672 4.719898-5.465901 4.590783-5.193323C4.26082-6.269288 3.371356-6.326672 3.113124-6.326672C1.649813-6.326672 .875118-4.447321 .875118-4.131704C.875118-4.07432 .932503-4.002589 1.032926-4.002589C1.147696-4.002589 1.176388-4.088666 1.20508-4.146051C1.692851-5.738478 2.654046-6.039748 3.070086-6.039748C3.715665-6.039748 3.84478-5.437208 3.84478-5.092899C3.84478-4.777283 3.758703-4.447321 3.586549-3.758703L3.098778-1.793274C2.883585-.932503 2.467546-.143462 1.707197-.143462C1.635466-.143462 1.276811-.143462 .975541-.329963C1.492004-.430386 1.606774-.860772 1.606774-1.032926C1.606774-1.31985 1.391581-1.492004 1.119003-1.492004C.774695-1.492004 .401693-1.190734 .401693-.731656C.401693-.129116 1.075965 .143462 1.692851 .143462C2.381468 .143462 2.869239-.401693 3.170509-.989888C3.400048-.143462 4.117358 .143462 4.648167 .143462C6.111479 .143462 6.886174-1.73589 6.886174-2.051506C6.886174-2.123237 6.828789-2.180622 6.742712-2.180622C6.613596-2.180622 6.59925-2.108891 6.556211-1.994121C6.168864-.731656 5.336785-.143462 4.691206-.143462C4.189089-.143462 3.916511-.516463 3.916511-1.104657C3.916511-1.420273 3.973896-1.649813 4.203435-2.596661L4.705552-4.547744C4.920745-5.408516 5.408516-6.039748 6.068441-6.039748C6.097133-6.039748 6.498827-6.039748 6.800097-5.853248Z'/>
</defs>
<g id='page1'>
<g transform='matrix(0.996264 0 0 0.996264 212.653 176.128)'>
<circle cx='156.829' cy='122.728' fill='#000000' r='1.50562'/>
</g>
<use x='354.816122' y='311.099399' xlink:href='#g0-79'/>
<g transform='matrix(0.996264 0 0 0.996264 212.653 176.128)'>
<path d='M 258.715 122.728C 258.715 66.458 213.1 20.8421 156.829 20.8421C 100.559 20.8421 54.9435 66.458 54.9435 122.728C 54.9435 178.998 100.559 224.614 156.829 224.614C 213.1 224.614 258.715 178.998 258.715 122.728Z' fill='none' stroke='#000000' stroke-linecap='round' stroke-linejoin='round' stroke-miterlimit='10.0375' stroke-width='0.501875'/>
</g>
<g transform='matrix(0.996264 0 0 0.996264 212.653 176.128)'>
<path d='M 156.829 224.614L 156.829 20.8421' fill='none' stroke='#000000' stroke-linecap='round' stroke-linejoin='round' stroke-miterlimit='10.0375' stroke-width='0.501875'/>
</g>
<g transform='matrix(0.996264 0 0 0.996264 212.653 176.128)'>
<path d='M 54.9435 122.728L 258.715 122.728' fill='none' stroke='#000000' stroke-linecap='round' stroke-linejoin='round' stroke-miterlimit='10.0375' stroke-width='0.501875'/>
</g>
<g transform='matrix(0.996264 0 0 0.996264 212.653 176.128)'>
<path d='M 156.829 122.728L 245.065 71.7851' fill='none' stroke='#000000' stroke-linecap='round' stroke-linejoin='round' stroke-miterlimit='10.0375' stroke-width='0.501875'/>
</g>
<g transform='matrix(0.996264 0 0 0.996264 212.653 176.128)'>
<path d='M 190.771 111.76C 191.887 115.216 192.49 118.902 192.49 122.728' fill='none' stroke='#0000ff' stroke-linecap='round' stroke-linejoin='round' stroke-miterlimit='10.0375' stroke-width='0.501875'/>
</g>
<g transform='matrix(0.996264 0 0 0.996264 212.653 176.128)'>
<path d='M 187.717 104.895C 188.384 107.309 188.8 109.807 188.943 112.351L 192.647 111.155C 191.231 108.868 189.573 106.773 187.717 104.895Z' fill='#0000ff'/>
</g>
<g transform='matrix(0.996264 0 0 0.996264 212.653 176.128)'>
<path d='M 187.717 104.895C 188.384 107.309 188.8 109.807 188.943 112.351L 192.647 111.155C 191.231 108.868 189.573 106.773 187.717 104.895Z' fill='none' stroke='#0000ff' stroke-linecap='round' stroke-linejoin='round' stroke-miterlimit='10.0375' stroke-width='0.501875'/>
</g>
<g fill='#00f'>
<use x='407.26741' y='290.321892' xlink:href='#g0-120'/>
</g>
<g transform='matrix(0.996264 0 0 0.996264 212.653 176.128)'>
<path d='M 156.829 122.728L 68.5936 173.671' fill='none' stroke='#000000' stroke-linecap='round' stroke-linejoin='round' stroke-miterlimit='10.0375' stroke-width='0.501875'/>
</g>
<g transform='matrix(0.996264 0 0 0.996264 212.653 176.128)'>
<path d='M 132.012 128.49C 131.584 126.638 131.358 124.71 131.358 122.728C 131.358 108.661 142.762 97.2566 156.829 97.2566C 156.829 97.2566 156.829 97.2566 156.829 97.2566' fill='none' stroke='#0000ff' stroke-linecap='round' stroke-linejoin='round' stroke-miterlimit='10.0375' stroke-width='0.501875'/>
</g>
<g transform='matrix(0.996264 0 0 0.996264 212.653 176.128)'>
<path d='M 134.767 135.466C 134.104 133.091 133.782 130.601 133.841 128.067L 130.118 128.928C 131.329 131.379 132.908 133.575 134.767 135.466Z' fill='#0000ff'/>
</g>
<g transform='matrix(0.996264 0 0 0.996264 212.653 176.128)'>
<path d='M 134.767 135.466C 134.104 133.091 133.782 130.601 133.841 128.067L 130.118 128.928C 131.329 131.379 132.908 133.575 134.767 135.466Z' fill='none' stroke='#0000ff' stroke-linecap='round' stroke-linejoin='round' stroke-miterlimit='10.0375' stroke-width='0.501875'/>
</g>
<g fill='#00f'>
<use x='309.530757' y='284.429894' xlink:href='#g0-120'/>
<use x='320.701255' y='284.429894' xlink:href='#g1-43'/>
<use x='334.814828' y='284.429894' xlink:href='#g0-25'/>
</g>
<g transform='matrix(0.996264 0 0 0.996264 212.653 176.128)'>
<path d='M 182.301 122.728C 182.301 108.661 170.897 97.2566 156.829 97.2566' fill='none' stroke='#0000ff' stroke-linecap='round' stroke-linejoin='round' stroke-miterlimit='10.0375' stroke-width='0.501875'/>
</g>
<g transform='matrix(0.996264 0 0 0.996264 212.653 176.128)'>
<path d='M 245.065 71.7851L 245.065 122.728' fill='none' stroke='#0000ff' stroke-dasharray='3.91869,3.91869' stroke-linecap='round' stroke-linejoin='round' stroke-miterlimit='10.0375' stroke-width='0.501875'/>
</g>
<g transform='matrix(0.996264 0 0 0.996264 212.653 176.128)'>
<path d='M 245.065 71.7851L 156.829 71.7851' fill='none' stroke='#0000ff' stroke-dasharray='4.20171,4.20171' stroke-linecap='round' stroke-linejoin='round' stroke-miterlimit='10.0375' stroke-width='0.501875'/>
</g>
<g transform='matrix(0.996264 0 0 0.996264 212.653 176.128)'>
<path d='M 245.065 113.941L 236.279 113.941L 236.279 122.728' fill='none' stroke='#0000ff' stroke-linecap='butt' stroke-linejoin='miter' stroke-miterlimit='10.0375' stroke-width='0.501875'/>
</g>
<g transform='matrix(0.996264 0 0 0.996264 212.653 176.128)'>
<path d='M 156.829 80.5719L 165.616 80.5719L 165.616 71.7851' fill='none' stroke='#0000ff' stroke-linecap='butt' stroke-linejoin='miter' stroke-miterlimit='10.0375' stroke-width='0.501875'/>
</g>
<g transform='matrix(0.996264 0 0 0.996264 212.653 176.128)'>
<path d='M 68.5936 173.671L 68.5936 122.728' fill='none' stroke='#0000ff' stroke-dasharray='3.91869,3.91869' stroke-linecap='round' stroke-linejoin='round' stroke-miterlimit='10.0375' stroke-width='0.501875'/>
</g>
<g transform='matrix(0.996264 0 0 0.996264 212.653 176.128)'>
<path d='M 68.5936 173.671L 156.829 173.671' fill='none' stroke='#0000ff' stroke-dasharray='4.20171,4.20171' stroke-linecap='round' stroke-linejoin='round' stroke-miterlimit='10.0375' stroke-width='0.501875'/>
</g>
<g transform='matrix(0.996264 0 0 0.996264 212.653 176.128)'>
<path d='M 68.5936 131.515L 77.3804 131.515L 77.3804 122.728' fill='none' stroke='#0000ff' stroke-linecap='butt' stroke-linejoin='miter' stroke-miterlimit='10.0375' stroke-width='0.501875'/>
</g>
<g transform='matrix(0.996264 0 0 0.996264 212.653 176.128)'>
<path d='M 156.829 164.884L 148.043 164.884L 148.043 173.671' fill='none' stroke='#0000ff' stroke-linecap='butt' stroke-linejoin='miter' stroke-miterlimit='10.0375' stroke-width='0.501875'/>
</g>
<g transform='matrix(0.996264 0 0 0.996264 212.653 176.128)'>
<circle cx='245.065' cy='71.7851' fill='#000000' r='1.50562'/>
</g>
<use x='460.430262' y='244.937685' xlink:href='#g0-77'/>
<use x='475.518576' y='244.937685' xlink:href='#g1-40'/>
<use x='480.981364' y='244.937685' xlink:href='#g0-120'/>
<use x='488.963865' y='244.937685' xlink:href='#g1-41'/>
<g transform='matrix(0.996264 0 0 0.996264 212.653 176.128)'>
<circle cx='245.065' cy='122.728' fill='#000000' r='1.50562'/>
</g>
<use x='426.427691' y='313.281341' xlink:href='#g1-99'/>
<use x='432.670878' y='313.281341' xlink:href='#g1-111'/>
<use x='439.694463' y='313.281341' xlink:href='#g1-115'/>
<use x='445.23526' y='313.281341' xlink:href='#g1-40'/>
<use x='450.698048' y='313.281341' xlink:href='#g0-120'/>
<use x='458.68055' y='313.281341' xlink:href='#g1-41'/>
<g transform='matrix(0.996264 0 0 0.996264 212.653 176.128)'>
<circle cx='156.829' cy='71.7851' fill='#000000' r='1.50562'/>
</g>
<use x='328.561215' y='251.171282' xlink:href='#g1-115'/>
<use x='334.102044' y='251.171282' xlink:href='#g1-105'/>
<use x='338.004035' y='251.171282' xlink:href='#g1-110'/>
<use x='345.807987' y='251.171282' xlink:href='#g1-40'/>
<use x='351.270775' y='251.171282' xlink:href='#g0-120'/>
<use x='359.253277' y='251.171282' xlink:href='#g1-41'/>
<g transform='matrix(0.996264 0 0 0.996264 212.653 176.128)'>
<circle cx='68.5936' cy='173.671' fill='#000000' r='1.50562'/>
</g>
<use x='214.351577' y='358.910236' xlink:href='#g0-77'/>
<use x='229.439891' y='353.704127' xlink:href='#g2-48'/>
<use x='232.677733' y='358.910236' xlink:href='#g1-40'/>
<use x='238.140522' y='358.910236' xlink:href='#g0-120'/>
<use x='249.311019' y='358.910236' xlink:href='#g1-43'/>
<use x='263.424593' y='358.910236' xlink:href='#g0-25'/>
<use x='271.907707' y='358.910236' xlink:href='#g1-41'/>
<g transform='matrix(0.996264 0 0 0.996264 212.653 176.128)'>
<circle cx='68.5936' cy='122.728' fill='#000000' r='1.50562'/>
</g>
<use x='231.27677' y='290.566564' xlink:href='#g1-99'/>
<use x='237.519957' y='290.566564' xlink:href='#g1-111'/>
<use x='244.543543' y='290.566564' xlink:href='#g1-115'/>
<use x='250.084339' y='290.566564' xlink:href='#g1-40'/>
<use x='255.547128' y='290.566564' xlink:href='#g0-120'/>
<use x='266.717625' y='290.566564' xlink:href='#g1-43'/>
<use x='280.831199' y='290.566564' xlink:href='#g0-25'/>
<use x='289.314313' y='290.566564' xlink:href='#g1-41'/>
<g transform='matrix(0.996264 0 0 0.996264 212.653 176.128)'>
<circle cx='156.829' cy='173.671' fill='#000000' r='1.50562'/>
</g>
<use x='373.084651' y='352.676623' xlink:href='#g1-115'/>
<use x='378.62548' y='352.676623' xlink:href='#g1-105'/>
<use x='382.527472' y='352.676623' xlink:href='#g1-110'/>
<use x='390.331423' y='352.676623' xlink:href='#g1-40'/>
<use x='395.794212' y='352.676623' xlink:href='#g0-120'/>
<use x='406.964709' y='352.676623' xlink:href='#g1-43'/>
<use x='421.078282' y='352.676623' xlink:href='#g0-25'/>
<use x='429.561397' y='352.676623' xlink:href='#g1-41'/>
<g transform='matrix(0.996264 0 0 0.996264 212.653 176.128)'>
<circle cx='258.715' cy='122.728' fill='#0000ff' r='1.50562'/>
</g>
<g fill='#00f'>
<use x='474.589978' y='302.960061' xlink:href='#g1-48'/>
</g>
<g transform='matrix(0.996264 0 0 0.996264 212.653 176.128)'>
<circle cx='156.829' cy='20.8421' fill='#0000ff' r='1.50562'/>
</g>
<g fill='#00f'>
<use x='365.882138' y='182.052107' xlink:href='#g3-25'/>
</g>
<rect x='365.882138' y='183.914872' height='.398484' width='6.036415' fill='#00f'/>
<g fill='#00f'>
<use x='366.409686' y='192.647795' xlink:href='#g4-50'/>
</g>
<g transform='matrix(0.996264 0 0 0.996264 212.653 176.128)'>
<circle cx='54.9435' cy='122.728' fill='#0000ff' r='1.50562'/>
</g>
<g fill='#00f'>
<use x='254.727587' y='301.425821' xlink:href='#g0-25'/>
</g>
<g transform='matrix(0.996264 0 0 0.996264 212.653 176.128)'>
<circle cx='156.829' cy='224.614' fill='#0000ff' r='1.50562'/>
</g>
<g fill='#00f'>
<use x='363.391478' y='410.447288' xlink:href='#g4-51'/>
<use x='368.372817' y='410.447288' xlink:href='#g3-25'/>
</g>
<rect x='363.391478' y='412.310054' height='.398484' width='11.01775' fill='#00f'/>
<g fill='#00f'>
<use x='366.409686' y='421.042976' xlink:href='#g4-50'/>
</g>
</g>
</svg>