<?xml version='1.0' encoding='UTF-8'?>
<!-- This file was generated by dvisvgm 2.13.1 -->
<svg version='1.1' xmlns='http://www.w3.org/2000/svg' xmlns:xlink='http://www.w3.org/1999/xlink' width='283.464567pt' height='309.583938pt' viewBox='196.258722 223.592932 283.464567 309.583938'>
<defs>
<path id='g2-43' d='M5.724132-3.313971H9.683682C9.884529-3.313971 10.14276-3.313971 10.14276-3.572203C10.14276-3.84478 9.898875-3.84478 9.683682-3.84478H5.724132V-7.80433C5.724132-8.005177 5.724132-8.263409 5.465901-8.263409C5.193323-8.263409 5.193323-8.019523 5.193323-7.80433V-3.84478H1.233773C1.032926-3.84478 .774695-3.84478 .774695-3.586549C.774695-3.313971 1.01858-3.313971 1.233773-3.313971H5.193323V.645579C5.193323 .846426 5.193323 1.104657 5.451554 1.104657C5.724132 1.104657 5.724132 .860772 5.724132 .645579V-3.313971Z'/>
<path id='g0-0' d='M9.454143-3.299625C9.698028-3.299625 9.95626-3.299625 9.95626-3.586549S9.698028-3.873473 9.454143-3.873473H1.692851C1.448966-3.873473 1.190734-3.873473 1.190734-3.586549S1.448966-3.299625 1.692851-3.299625H9.454143Z'/>
<path id='g1-65' d='M2.438853-1.592428C1.936736-.746002 1.448966-.459078 .760348-.41604C.60254-.401693 .487771-.401693 .487771-.143462C.487771-.057385 .559502 0 .659925 0C.918157 0 1.563735-.028692 1.821967-.028692C2.238007-.028692 2.697085 0 3.098778 0C3.184855 0 3.35701 0 3.35701-.272578C3.35701-.401693 3.24224-.41604 3.156163-.41604C2.826201-.444732 2.553623-.559502 2.553623-.90381C2.553623-1.104657 2.6397-1.262465 2.826201-1.578082L3.916511-3.385702H7.574791C7.589138-3.256586 7.589138-3.141817 7.603484-3.012701C7.646522-2.6397 7.818677-1.147696 7.818677-.875118C7.818677-.444732 7.087021-.41604 6.857482-.41604C6.699673-.41604 6.541865-.41604 6.541865-.157808C6.541865 0 6.670981 0 6.757058 0C7.000943 0 7.287867-.028692 7.531753-.028692H8.349486C9.224604-.028692 9.855836 0 9.870183 0C9.970606 0 10.128414 0 10.128414-.272578C10.128414-.41604 9.999298-.41604 9.784105-.41604C8.995065-.41604 8.980718-.545155 8.93768-.975541L8.062562-9.927567C8.03387-10.214491 7.976485-10.243184 7.818677-10.243184C7.675215-10.243184 7.589138-10.214491 7.460022-9.999298L2.438853-1.592428ZM4.160397-3.801742L7.043982-8.622064L7.531753-3.801742H4.160397Z'/>
<path id='g1-66' d='M5.250708-8.82291C5.379823-9.35372 5.437208-9.382412 5.99671-9.382412H7.861715C9.482835-9.382412 9.482835-8.005177 9.482835-7.876061C9.482835-6.71402 8.320793-5.236361 6.427096-5.236361H4.361243L5.250708-8.82291ZM7.675215-5.121592C9.23895-5.408516 10.659223-6.498827 10.659223-7.818677C10.659223-8.93768 9.669336-9.798452 8.048216-9.798452H3.443087C3.170509-9.798452 3.041393-9.798452 3.041393-9.525874C3.041393-9.382412 3.170509-9.382412 3.385702-9.382412C4.26082-9.382412 4.26082-9.267642 4.26082-9.109834C4.26082-9.081142 4.26082-8.995065 4.203435-8.779872L2.266699-1.061618C2.137583-.559502 2.108891-.41604 1.104657-.41604C.832079-.41604 .688617-.41604 .688617-.157808C.688617 0 .774695 0 1.061618 0H5.982364C8.177332 0 9.870183-1.664159 9.870183-3.113124C9.870183-4.289513 8.837257-5.006822 7.675215-5.121592ZM5.638055-.41604H3.701318C3.500472-.41604 3.471779-.41604 3.385702-.430386C3.227894-.444732 3.213548-.473424 3.213548-.588194C3.213548-.688617 3.24224-.774695 3.270933-.90381L4.275166-4.949438H6.972251C8.665102-4.949438 8.665102-3.371356 8.665102-3.256586C8.665102-1.879352 7.416983-.41604 5.638055-.41604Z'/>
<path id='g1-68' d='M2.252353-1.061618C2.123237-.559502 2.094545-.41604 1.090311-.41604C.817733-.41604 .674271-.41604 .674271-.157808C.674271 0 .760348 0 1.047272 0H5.595016C8.492948 0 11.319148-2.998355 11.319148-6.197557C11.319148-8.263409 10.085376-9.798452 8.03387-9.798452H3.428741C3.156163-9.798452 3.027047-9.798452 3.027047-9.525874C3.027047-9.382412 3.156163-9.382412 3.371356-9.382412C4.246474-9.382412 4.246474-9.267642 4.246474-9.109834C4.246474-9.081142 4.246474-8.995065 4.189089-8.779872L2.252353-1.061618ZM5.2794-8.82291C5.408516-9.35372 5.465901-9.382412 6.025402-9.382412H7.603484C8.952026-9.382412 10.185799-8.650756 10.185799-6.670981C10.185799-5.953671 9.898875-3.457433 8.507294-1.879352C8.105601-1.405927 7.01529-.41604 5.365477-.41604H3.730011C3.529164-.41604 3.500472-.41604 3.414395-.430386C3.256586-.444732 3.24224-.473424 3.24224-.588194C3.24224-.688617 3.270933-.774695 3.299625-.90381L5.2794-8.82291Z'/>
<path id='g1-69' d='M9.970606-3.328317C9.984952-3.371356 10.027991-3.471779 10.027991-3.529164C10.027991-3.600895 9.970606-3.672626 9.884529-3.672626C9.827144-3.672626 9.798452-3.65828 9.755413-3.615241C9.726721-3.600895 9.726721-3.572203 9.597605-3.285279C8.751179-1.276811 8.134293-.41604 5.838902-.41604H3.744357C3.54351-.41604 3.514818-.41604 3.428741-.430386C3.270933-.444732 3.256586-.473424 3.256586-.588194C3.256586-.688617 3.285279-.774695 3.313971-.90381L4.303859-4.86336H5.724132C6.843135-4.86336 6.929213-4.619475 6.929213-4.189089C6.929213-4.045627 6.929213-3.916511 6.828789-3.486126C6.800097-3.428741 6.785751-3.371356 6.785751-3.328317C6.785751-3.227894 6.857482-3.184855 6.943559-3.184855C7.072674-3.184855 7.087021-3.285279 7.144405-3.486126L7.962139-6.814443C7.962139-6.886174 7.904754-6.957905 7.818677-6.957905C7.689561-6.957905 7.675215-6.90052 7.61783-6.699673C7.330906-5.595016 7.043982-5.2794 5.767171-5.2794H4.404282L5.293746-8.808564C5.422862-9.310681 5.451554-9.35372 6.039748-9.35372H8.091254C9.855836-9.35372 10.214491-8.880295 10.214491-7.789984C10.214491-7.775638 10.214491-7.373945 10.157107-6.90052C10.14276-6.843135 10.128414-6.757058 10.128414-6.728366C10.128414-6.613596 10.200145-6.570558 10.286222-6.570558C10.386646-6.570558 10.44403-6.627942 10.472723-6.886174L10.773993-9.396758C10.773993-9.439797 10.802685-9.583259 10.802685-9.611951C10.802685-9.769759 10.67357-9.769759 10.415338-9.769759H3.414395C3.141817-9.769759 2.998355-9.769759 2.998355-9.511528C2.998355-9.35372 3.098778-9.35372 3.342664-9.35372C4.232128-9.35372 4.232128-9.253296 4.232128-9.095488C4.232128-9.023757 4.217782-8.966372 4.174743-8.808564L2.238007-1.061618C2.108891-.559502 2.080198-.41604 1.075965-.41604C.803387-.41604 .659925-.41604 .659925-.157808C.659925 0 .746002 0 1.032926 0H8.234716C8.550333 0 8.564679-.014346 8.665102-.243885L9.970606-3.328317Z'/>
<path id='g1-79' d='M10.415338-6.283634C10.415338-8.650756 8.865949-10.099722 6.857482-10.099722C3.787396-10.099722 .688617-6.800097 .688617-3.486126C.688617-1.233773 2.180622 .30127 4.26082 .30127C7.273521 .30127 10.415338-2.840547 10.415338-6.283634ZM4.346897-.028692C3.170509-.028692 1.92239-.889464 1.92239-3.127471C1.92239-4.432974 2.395815-6.570558 3.572203-8.005177C4.619475-9.267642 5.824555-9.784105 6.785751-9.784105C8.048216-9.784105 9.267642-8.865949 9.267642-6.800097C9.267642-5.523285 8.722487-3.529164 7.761292-2.166276C6.71402-.702964 5.408516-.028692 4.346897-.028692Z'/>
<path id='g1-97' d='M4.318205-1.707197C4.246474-1.463312 4.246474-1.43462 4.045627-1.162042C3.730011-.760348 3.098778-.143462 2.424507-.143462C1.836313-.143462 1.506351-.674271 1.506351-1.520697C1.506351-2.309738 1.951083-3.916511 2.22366-4.519052C2.711431-5.523285 3.385702-6.039748 3.945204-6.039748C4.892053-6.039748 5.078553-4.86336 5.078553-4.748591C5.078553-4.734245 5.035515-4.547744 5.021168-4.519052L4.318205-1.707197ZM5.236361-5.379823C5.078553-5.752824 4.691206-6.326672 3.945204-6.326672C2.324084-6.326672 .573848-4.232128 .573848-2.108891C.573848-.688617 1.405927 .143462 2.381468 .143462C3.170509 .143462 3.84478-.473424 4.246474-.946849C4.389936-.100423 5.064207 .143462 5.494593 .143462S6.269288-.11477 6.527519-.631233C6.757058-1.119003 6.957905-1.994121 6.957905-2.051506C6.957905-2.123237 6.90052-2.180622 6.814443-2.180622C6.685327-2.180622 6.670981-2.108891 6.613596-1.893698C6.398403-1.047272 6.125826-.143462 5.537632-.143462C5.121592-.143462 5.092899-.516463 5.092899-.803387C5.092899-1.133349 5.135938-1.291158 5.265054-1.850659C5.365477-2.209314 5.437208-2.52493 5.551978-2.94097C6.082787-5.092899 6.211903-5.609363 6.211903-5.69544C6.211903-5.896286 6.054095-6.054095 5.838902-6.054095C5.379823-6.054095 5.265054-5.551978 5.236361-5.379823Z'/>
<path id='g1-98' d='M3.313971-9.597605C3.328317-9.65499 3.35701-9.741067 3.35701-9.812798C3.35701-9.95626 3.213548-9.95626 3.184855-9.95626C3.170509-9.95626 2.654046-9.913221 2.395815-9.884529C2.151929-9.870183 1.936736-9.84149 1.678505-9.827144C1.334196-9.798452 1.233773-9.784105 1.233773-9.525874C1.233773-9.382412 1.377235-9.382412 1.520697-9.382412C2.252353-9.382412 2.252353-9.253296 2.252353-9.109834C2.252353-9.009411 2.137583-8.593371 2.080198-8.33514L1.73589-6.957905C1.592428-6.384057 .774695-3.127471 .71731-2.869239C.645579-2.510584 .645579-2.266699 .645579-2.080198C.645579-.616886 1.463312 .143462 2.395815 .143462C4.059973 .143462 5.781517-1.994121 5.781517-4.07432C5.781517-5.39417 5.035515-6.326672 3.95955-6.326672C3.213548-6.326672 2.539277-5.709786 2.266699-5.422862L3.313971-9.597605ZM2.410161-.143462C1.951083-.143462 1.448966-.487771 1.448966-1.606774C1.448966-2.080198 1.492004-2.352776 1.750236-3.35701C1.793274-3.54351 2.022814-4.461667 2.080198-4.648167C2.108891-4.762937 2.955316-6.039748 3.930858-6.039748C4.56209-6.039748 4.849014-5.408516 4.849014-4.662514C4.849014-3.973896 4.447321-2.352776 4.088666-1.606774C3.730011-.832079 3.070086-.143462 2.410161-.143462Z'/>
<path id='g1-120' d='M6.800097-5.853248C6.341018-5.767171 6.168864-5.422862 6.168864-5.150284C6.168864-4.805976 6.441442-4.691206 6.642289-4.691206C7.072674-4.691206 7.373945-5.064207 7.373945-5.451554C7.373945-6.054095 6.685327-6.326672 6.082787-6.326672C5.207669-6.326672 4.719898-5.465901 4.590783-5.193323C4.26082-6.269288 3.371356-6.326672 3.113124-6.326672C1.649813-6.326672 .875118-4.447321 .875118-4.131704C.875118-4.07432 .932503-4.002589 1.032926-4.002589C1.147696-4.002589 1.176388-4.088666 1.20508-4.146051C1.692851-5.738478 2.654046-6.039748 3.070086-6.039748C3.715665-6.039748 3.84478-5.437208 3.84478-5.092899C3.84478-4.777283 3.758703-4.447321 3.586549-3.758703L3.098778-1.793274C2.883585-.932503 2.467546-.143462 1.707197-.143462C1.635466-.143462 1.276811-.143462 .975541-.329963C1.492004-.430386 1.606774-.860772 1.606774-1.032926C1.606774-1.31985 1.391581-1.492004 1.119003-1.492004C.774695-1.492004 .401693-1.190734 .401693-.731656C.401693-.129116 1.075965 .143462 1.692851 .143462C2.381468 .143462 2.869239-.401693 3.170509-.989888C3.400048-.143462 4.117358 .143462 4.648167 .143462C6.111479 .143462 6.886174-1.73589 6.886174-2.051506C6.886174-2.123237 6.828789-2.180622 6.742712-2.180622C6.613596-2.180622 6.59925-2.108891 6.556211-1.994121C6.168864-.731656 5.336785-.143462 4.691206-.143462C4.189089-.143462 3.916511-.516463 3.916511-1.104657C3.916511-1.420273 3.973896-1.649813 4.203435-2.596661L4.705552-4.547744C4.920745-5.408516 5.408516-6.039748 6.068441-6.039748C6.097133-6.039748 6.498827-6.039748 6.800097-5.853248Z'/>
<path id='g1-121' d='M3.773049 1.606774C3.385702 2.151929 2.826201 2.6397 2.123237 2.6397C1.951083 2.6397 1.262465 2.611008 1.047272 1.951083C1.090311 1.965429 1.162042 1.965429 1.190734 1.965429C1.62112 1.965429 1.908044 1.592428 1.908044 1.262465S1.635466 .817733 1.420273 .817733C1.190734 .817733 .688617 .989888 .688617 1.692851C.688617 2.424507 1.305504 2.926624 2.123237 2.926624C3.557857 2.926624 5.006822 1.606774 5.408516 .014346L6.814443-5.58067C6.828789-5.652401 6.857482-5.738478 6.857482-5.824555C6.857482-6.039748 6.685327-6.18321 6.470134-6.18321C6.341018-6.18321 6.039748-6.125826 5.924979-5.69544L4.86336-1.477658C4.791629-1.219427 4.791629-1.190734 4.67686-1.032926C4.389936-.631233 3.916511-.143462 3.227894-.143462C2.424507-.143462 2.352776-.932503 2.352776-1.31985C2.352776-2.137583 2.740123-3.24224 3.127471-4.275166C3.285279-4.691206 3.371356-4.892053 3.371356-5.178977C3.371356-5.781517 2.94097-6.326672 2.238007-6.326672C.918157-6.326672 .387347-4.246474 .387347-4.131704C.387347-4.07432 .444732-4.002589 .545155-4.002589C.674271-4.002589 .688617-4.059973 .746002-4.26082C1.090311-5.465901 1.635466-6.039748 2.194968-6.039748C2.324084-6.039748 2.567969-6.039748 2.567969-5.566324C2.567969-5.193323 2.410161-4.777283 2.194968-4.232128C1.492004-2.352776 1.492004-1.879352 1.492004-1.535043C1.492004-.172154 2.467546 .143462 3.184855 .143462C3.600895 .143462 4.117358 .014346 4.619475-.516463L4.633821-.502117C4.418628 .344309 4.275166 .90381 3.773049 1.606774Z'/>
</defs>
<g id='page1'>
<g transform='matrix(0.996264 0 0 0.996264 196.259 223.593)'>
<circle cx='140.374' cy='170.371' fill='#000000' r='1.50562'/>
</g>
<use x='322.027595' y='406.029574' xlink:href='#g1-79'/>
<g transform='matrix(0.996264 0 0 0.996264 196.259 223.593)'>
<path d='M 267.758 170.371C 267.758 100.019 210.726 42.9868 140.374 42.9868C 70.0213 42.9868 12.9894 100.019 12.9894 170.371C 12.9894 240.724 70.0213 297.756 140.374 297.756C 210.726 297.756 267.758 240.724 267.758 170.371Z' fill='none' stroke='#000000' stroke-linecap='round' stroke-linejoin='round' stroke-miterlimit='10.0375' stroke-width='0.501875'/>
</g>
<g transform='matrix(0.996264 0 0 0.996264 196.259 223.593)'>
<path d='M 140.374 37.7765L 140.374 310.494' fill='none' stroke='#000000' stroke-linecap='round' stroke-linejoin='round' stroke-miterlimit='10.0375' stroke-width='0.501875'/>
</g>
<g transform='matrix(0.996264 0 0 0.996264 196.259 223.593)'>
<path d='M 140.374 30.2484L 138.357 37.7765L 142.391 37.7765L 140.374 30.2484Z' fill='#000000'/>
</g>
<g transform='matrix(0.996264 0 0 0.996264 196.259 223.593)'>
<path d='M 140.374 30.2484L 138.357 37.7765L 142.391 37.7765L 140.374 30.2484Z' fill='none' stroke='#000000' stroke-linecap='round' stroke-linejoin='round' stroke-miterlimit='10.0375' stroke-width='0.501875'/>
</g>
<g transform='matrix(0.996264 0 0 0.996264 196.259 223.593)'>
<path d='M 272.968 170.371L 0.250937 170.371' fill='none' stroke='#000000' stroke-linecap='round' stroke-linejoin='round' stroke-miterlimit='10.0375' stroke-width='0.501875'/>
</g>
<g transform='matrix(0.996264 0 0 0.996264 196.259 223.593)'>
<path d='M 280.496 170.371L 272.968 168.354L 272.968 172.388L 280.496 170.371Z' fill='#000000'/>
</g>
<g transform='matrix(0.996264 0 0 0.996264 196.259 223.593)'>
<path d='M 280.496 170.371L 272.968 168.354L 272.968 172.388L 280.496 170.371Z' fill='none' stroke='#000000' stroke-linecap='round' stroke-linejoin='round' stroke-miterlimit='10.0375' stroke-width='0.501875'/>
</g>
<g transform='matrix(0.996264 0 0 0.996264 196.259 223.593)'>
<path d='M 140.374 170.371L 237.956 88.4901' fill='none' stroke='#000000' stroke-linecap='round' stroke-linejoin='round' stroke-miterlimit='10.0375' stroke-width='0.501875'/>
</g>
<g transform='matrix(0.996264 0 0 0.996264 196.259 223.593)'>
<path d='M 188.738 139.588C 194.41 148.48 197.697 159.042 197.697 170.371' fill='none' stroke='#0000ff' stroke-linecap='round' stroke-linejoin='round' stroke-miterlimit='10.0375' stroke-width='0.501875'/>
</g>
<g transform='matrix(0.996264 0 0 0.996264 196.259 223.593)'>
<path d='M 184.287 133.524C 185.374 135.827 186.31 138.205 187.086 140.642L 190.418 138.517C 188.488 136.71 186.438 135.042 184.287 133.524Z' fill='#0000ff'/>
</g>
<g transform='matrix(0.996264 0 0 0.996264 196.259 223.593)'>
<path d='M 184.287 133.524C 185.374 135.827 186.31 138.205 187.086 140.642L 190.418 138.517C 188.488 136.71 186.438 135.042 184.287 133.524Z' fill='none' stroke='#0000ff' stroke-linecap='round' stroke-linejoin='round' stroke-miterlimit='10.0375' stroke-width='0.501875'/>
</g>
<g fill='#00f'>
<use x='393.722956' y='374.650891' xlink:href='#g1-97'/>
<use x='404.284882' y='374.650891' xlink:href='#g0-0'/>
<use x='418.63107' y='374.650891' xlink:href='#g1-98'/>
</g>
<g transform='matrix(0.996264 0 0 0.996264 196.259 223.593)'>
<path d='M 140.374 170.371L 96.8057 50.669' fill='none' stroke='#000000' stroke-linecap='round' stroke-linejoin='round' stroke-miterlimit='10.0375' stroke-width='0.501875'/>
</g>
<g transform='matrix(0.996264 0 0 0.996264 196.259 223.593)'>
<path d='M 139.008 144.93C 139.46 144.906 139.916 144.894 140.374 144.894C 154.444 144.894 165.851 156.301 165.851 170.371' fill='none' stroke='#0000ff' stroke-linecap='round' stroke-linejoin='round' stroke-miterlimit='10.0375' stroke-width='0.501875'/>
</g>
<g transform='matrix(0.996264 0 0 0.996264 196.259 223.593)'>
<path d='M 131.658 146.424C 134.094 146.188 136.599 146.302 139.107 146.806L 138.905 142.988C 136.256 143.764 133.824 144.937 131.658 146.424Z' fill='#0000ff'/>
</g>
<g transform='matrix(0.996264 0 0 0.996264 196.259 223.593)'>
<path d='M 131.658 146.424C 134.094 146.188 136.599 146.302 139.107 146.806L 138.905 142.988C 136.256 143.764 133.824 144.937 131.658 146.424Z' fill='none' stroke='#0000ff' stroke-linecap='round' stroke-linejoin='round' stroke-miterlimit='10.0375' stroke-width='0.501875'/>
</g>
<g fill='#00f'>
<use x='352.182413' y='369.048487' xlink:href='#g1-98'/>
</g>
<g transform='matrix(0.996264 0 0 0.996264 196.259 223.593)'>
<path d='M 140.374 170.371L 30.0556 106.679' fill='none' stroke='#000000' stroke-linecap='round' stroke-linejoin='round' stroke-miterlimit='10.0375' stroke-width='0.501875'/>
</g>
<g transform='matrix(0.996264 0 0 0.996264 196.259 223.593)'>
<path d='M 106.056 141.907C 114.234 132.058 126.572 125.787 140.374 125.787C 140.374 125.787 140.374 125.787 140.374 125.787' fill='none' stroke='#0000ff' stroke-linecap='round' stroke-linejoin='round' stroke-miterlimit='10.0375' stroke-width='0.501875'/>
</g>
<g transform='matrix(0.996264 0 0 0.996264 196.259 223.593)'>
<path d='M 101.756 148.075C 103.549 146.266 105.489 144.619 107.551 143.148L 104.531 140.64C 103.391 143.024 102.46 145.512 101.756 148.075Z' fill='#0000ff'/>
</g>
<g transform='matrix(0.996264 0 0 0.996264 196.259 223.593)'>
<path d='M 101.756 148.075C 103.549 146.266 105.489 144.619 107.551 143.148L 104.531 140.64C 103.391 143.024 102.46 145.512 101.756 148.075Z' fill='none' stroke='#0000ff' stroke-linecap='round' stroke-linejoin='round' stroke-miterlimit='10.0375' stroke-width='0.501875'/>
</g>
<g fill='#00f'>
<use x='305.984835' y='351.171586' xlink:href='#g1-97'/>
</g>
<g transform='matrix(0.996264 0 0 0.996264 196.259 223.593)'>
<path d='M 184.958 170.371C 184.958 145.748 164.997 125.787 140.374 125.787' fill='none' stroke='#0000ff' stroke-linecap='round' stroke-linejoin='round' stroke-miterlimit='10.0375' stroke-width='0.501875'/>
</g>
<g transform='matrix(0.996264 0 0 0.996264 196.259 223.593)'>
<path d='M 181.291 3.29997C 217.364 12.1042 248.977 32.2867 272.113 59.8292' fill='none' stroke='#0000ff' stroke-linecap='round' stroke-linejoin='round' stroke-miterlimit='10.0375' stroke-width='0.752812'/>
</g>
<g transform='matrix(0.996264 0 0 0.996264 196.259 223.593)'>
<path d='M 170.241 0.986708C 173.764 2.61519 177.213 4.35456 180.584 6.19936L 182.005 0.376406C 178.097 0.444254 174.174 0.646578 170.241 0.986708Z' fill='#0000ff'/>
</g>
<g transform='matrix(0.996264 0 0 0.996264 196.259 223.593)'>
<path d='M 170.241 0.986708C 173.764 2.61519 177.213 4.35456 180.584 6.19936L 182.005 0.376406C 178.097 0.444254 174.174 0.646578 170.241 0.986708Z' fill='none' stroke='#0000ff' stroke-linecap='round' stroke-linejoin='round' stroke-miterlimit='10.0375' stroke-width='0.752812'/>
</g>
<g fill='#00f'>
<use x='421.577592' y='240.149397' xlink:href='#g2-43'/>
</g>
<g transform='matrix(0.996264 0 0 0.996264 196.259 223.593)'>
<path d='M 30.0556 106.679L 96.8057 50.669' fill='none' stroke='#000000' stroke-linecap='round' stroke-linejoin='round' stroke-miterlimit='10.0375' stroke-width='0.501875'/>
</g>
<g transform='matrix(0.996264 0 0 0.996264 196.259 223.593)'>
<path d='M 237.956 88.4901L 267.758 170.371' fill='none' stroke='#000000' stroke-linecap='round' stroke-linejoin='round' stroke-miterlimit='10.0375' stroke-width='0.501875'/>
</g>
<g transform='matrix(0.996264 0 0 0.996264 196.259 223.593)'>
<circle cx='30.0556' cy='106.679' fill='#000000' r='1.50562'/>
</g>
<use x='212.05176' y='329.792818' xlink:href='#g1-65'/>
<g transform='matrix(0.996264 0 0 0.996264 196.259 223.593)'>
<circle cx='96.8057' cy='50.669' fill='#000000' r='1.50562'/>
</g>
<use x='283.503831' y='270.080703' xlink:href='#g1-66'/>
<g transform='matrix(0.996264 0 0 0.996264 196.259 223.593)'>
<circle cx='237.956' cy='88.4901' fill='#000000' r='1.50562'/>
</g>
<use x='436.534672' y='309.791407' xlink:href='#g1-69'/>
<g transform='matrix(0.996264 0 0 0.996264 196.259 223.593)'>
<circle cx='267.758' cy='170.371' fill='#000000' r='1.50562'/>
</g>
<use x='465.979004' y='390.308833' xlink:href='#g1-68'/>
<use x='465.979004' y='402.403174' xlink:href='#g1-120'/>
<use x='339.070572' y='260.610875' xlink:href='#g1-121'/>
</g>
</svg>