<?xml version='1.0' encoding='UTF-8'?>
<!-- This file was generated by dvisvgm 2.13.1 -->
<svg version='1.1' xmlns='http://www.w3.org/2000/svg' xmlns:xlink='http://www.w3.org/1999/xlink' width='170.07874pt' height='114.732347pt' viewBox='88.54074 155.503307 170.07874 114.732347'>
<defs>
<path id='g1-19' d='M5.265054-9.109834C5.494593-9.296335 5.494593-9.454143 5.494593-9.525874C5.494593-9.784105 5.250708-9.999298 5.006822-9.999298C4.805976-9.999298 4.719898-9.898875 4.605129-9.741067L2.897932-7.560445C2.969663-7.474368 3.041393-7.402637 3.127471-7.330906L5.265054-9.109834Z'/>
<path id='g1-65' d='M5.551978-9.984952C5.494593-10.157107 5.465901-10.243184 5.265054-10.243184S5.035515-10.200145 4.963784-9.970606L1.965429-1.391581C1.764582-.803387 1.362889-.430386 .444732-.41604V0C1.31985-.028692 1.348542-.028692 1.821967-.028692C2.22366-.028692 2.912278-.028692 3.285279 0V-.41604C2.682739-.430386 2.324084-.731656 2.324084-1.133349C2.324084-1.219427 2.324084-1.248119 2.395815-1.43462L3.05574-3.342664H6.670981L7.460022-1.090311C7.531753-.918157 7.531753-.889464 7.531753-.846426C7.531753-.41604 6.800097-.41604 6.441442-.41604V0C6.771404-.028692 7.904754-.028692 8.306447-.028692S9.741067-.028692 10.071029 0V-.41604C9.138527-.41604 8.880295-.41604 8.679448-1.004234L5.551978-9.984952ZM4.86336-8.535986L6.527519-3.758703H3.199202L4.86336-8.535986Z'/>
<path id='g1-72' d='M8.564679-8.708141C8.564679-9.23895 8.607717-9.382412 9.640643-9.382412H9.927567V-9.798452C9.583259-9.769759 8.406871-9.769759 7.990831-9.769759C7.560445-9.769759 6.384057-9.769759 6.039748-9.798452V-9.382412H6.326672C7.359598-9.382412 7.402637-9.23895 7.402637-8.708141V-5.308092H3.113124V-8.708141C3.113124-9.23895 3.156163-9.382412 4.189089-9.382412H4.476013V-9.798452C4.131704-9.769759 2.955316-9.769759 2.539277-9.769759C2.108891-9.769759 .932503-9.769759 .588194-9.798452V-9.382412H.875118C1.908044-9.382412 1.951083-9.23895 1.951083-8.708141V-1.090311C1.951083-.559502 1.908044-.41604 .875118-.41604H.588194V0C.932503-.028692 2.108891-.028692 2.52493-.028692C2.955316-.028692 4.131704-.028692 4.476013 0V-.41604H4.189089C3.156163-.41604 3.113124-.559502 3.113124-1.090311V-4.892053H7.402637V-1.090311C7.402637-.559502 7.359598-.41604 6.326672-.41604H6.039748V0C6.384057-.028692 7.560445-.028692 7.976485-.028692C8.406871-.028692 9.583259-.028692 9.927567 0V-.41604H9.640643C8.607717-.41604 8.564679-.559502 8.564679-1.090311V-8.708141Z'/>
<path id='g1-79' d='M10.14276-4.86336C10.14276-7.833023 7.962139-10.099722 5.465901-10.099722C2.912278-10.099722 .774695-7.80433 .774695-4.86336C.774695-1.951083 2.94097 .30127 5.451554 .30127C8.019523 .30127 10.14276-1.979775 10.14276-4.86336ZM5.465901-.028692C4.002589-.028692 2.108891-1.405927 2.108891-5.078553C2.108891-8.593371 4.103012-9.784105 5.451554-9.784105C6.871828-9.784105 8.808564-8.550333 8.808564-5.078553C8.808564-1.348542 6.857482-.028692 5.465901-.028692Z'/>
<path id='g1-97' d='M5.537632-3.830434C5.537632-4.605129 5.537632-5.178977 4.906399-5.738478C4.404282-6.197557 3.758703-6.398403 3.127471-6.398403C1.951083-6.398403 1.047272-5.623709 1.047272-4.691206C1.047272-4.275166 1.31985-4.07432 1.649813-4.07432C1.994121-4.07432 2.238007-4.318205 2.238007-4.662514C2.238007-5.250708 1.721543-5.250708 1.506351-5.250708C1.836313-5.853248 2.52493-6.111479 3.098778-6.111479C3.758703-6.111479 4.605129-5.566324 4.605129-4.275166V-3.701318C1.721543-3.65828 .631233-2.453199 .631233-1.348542C.631233-.215193 1.951083 .143462 2.826201 .143462C3.773049 .143462 4.418628-.430386 4.691206-1.119003C4.748591-.444732 5.193323 .071731 5.810209 .071731C6.111479 .071731 6.943559-.129116 6.943559-1.276811V-2.080198H6.627942V-1.276811C6.627942-.459078 6.283634-.344309 6.082787-.344309C5.537632-.344309 5.537632-1.104657 5.537632-1.31985V-3.830434ZM4.605129-2.022814C4.605129-.616886 3.557857-.143462 2.94097-.143462C2.238007-.143462 1.649813-.659925 1.649813-1.348542C1.649813-3.24224 4.088666-3.414395 4.605129-3.443087V-2.022814Z'/>
<path id='g1-99' d='M5.193323-5.308092C5.021168-5.308092 4.490359-5.308092 4.490359-4.719898C4.490359-4.37559 4.734245-4.131704 5.078553-4.131704C5.408516-4.131704 5.681093-4.332551 5.681093-4.748591C5.681093-5.709786 4.67686-6.398403 3.514818-6.398403C1.836313-6.398403 .502117-4.906399 .502117-3.098778C.502117-1.262465 1.879352 .143462 3.500472 .143462C5.39417 .143462 5.824555-1.578082 5.824555-1.707197S5.724132-1.836313 5.681093-1.836313C5.551978-1.836313 5.537632-1.793274 5.494593-1.62112C5.178977-.60254 4.404282-.172154 3.629588-.172154C2.75447-.172154 1.592428-.932503 1.592428-3.113124C1.592428-5.494593 2.811854-6.082787 3.529164-6.082787C4.07432-6.082787 4.86336-5.867594 5.193323-5.308092Z'/>
<path id='g1-100' d='M4.303859-9.798452V-9.382412C5.2794-9.382412 5.39417-9.281989 5.39417-8.579025V-5.408516C5.092899-5.824555 4.476013-6.326672 3.600895-6.326672C1.936736-6.326672 .502117-4.920745 .502117-3.084432C.502117-1.262465 1.865005 .143462 3.443087 .143462C4.533398 .143462 5.16463-.573848 5.365477-.846426V.143462L7.388291 0V-.41604C6.412749-.41604 6.29798-.516463 6.29798-1.219427V-9.95626L4.303859-9.798452ZM5.365477-1.678505C5.365477-1.420273 5.365477-1.377235 5.16463-1.061618C4.820322-.559502 4.232128-.143462 3.514818-.143462C3.141817-.143462 1.592428-.286924 1.592428-3.070086C1.592428-4.103012 1.764582-4.67686 2.080198-5.150284C2.367122-5.595016 2.94097-6.039748 3.65828-6.039748C4.547744-6.039748 5.049861-5.39417 5.193323-5.16463C5.365477-4.920745 5.365477-4.892053 5.365477-4.633821V-1.678505Z'/>
<path id='g1-101' d='M5.494593-3.328317C5.810209-3.328317 5.838902-3.328317 5.838902-3.600895C5.838902-5.049861 5.064207-6.398403 3.328317-6.398403C1.692851-6.398403 .430386-4.920745 .430386-3.141817C.430386-1.248119 1.893698 .143462 3.486126 .143462C5.193323 .143462 5.838902-1.405927 5.838902-1.707197C5.838902-1.793274 5.767171-1.850659 5.681093-1.850659C5.566324-1.850659 5.537632-1.778928 5.508939-1.707197C5.135938-.502117 4.174743-.172154 3.572203-.172154S1.520697-.573848 1.520697-3.05574V-3.328317H5.494593ZM1.535043-3.600895C1.649813-5.853248 2.912278-6.111479 3.313971-6.111479C4.849014-6.111479 4.935091-4.088666 4.949438-3.600895H1.535043Z'/>
<path id='g1-106' d='M2.912278-8.837257C2.912278-9.267642 2.567969-9.54022 2.22366-9.54022C1.821967-9.54022 1.520697-9.224604 1.520697-8.837257C1.520697-8.464255 1.836313-8.148639 2.209314-8.148639C2.6397-8.148639 2.912278-8.492948 2.912278-8.837257ZM.803387-6.168864V-5.752824C1.879352-5.752824 2.008467-5.652401 2.008467-4.949438V.789041C2.008467 1.578082 1.850659 2.6397 1.01858 2.6397C.989888 2.6397 .545155 2.6397 .215193 2.438853C.588194 2.367122 .702964 2.094545 .702964 1.850659C.702964 1.520697 .459078 1.262465 .11477 1.262465C-.243885 1.262465-.487771 1.520697-.487771 1.865005C-.487771 2.553623 .286924 2.926624 1.032926 2.926624C2.065852 2.926624 2.912278 2.03716 2.912278 .731656V-6.326672L.803387-6.168864Z'/>
<path id='g1-110' d='M6.384057-3.486126C6.384057-4.820322 6.384057-5.222015 6.054095-5.681093C5.638055-6.240595 4.963784-6.326672 4.476013-6.326672C3.084432-6.326672 2.539277-5.135938 2.424507-4.849014H2.410161V-6.326672L.459078-6.168864V-5.752824C1.43462-5.752824 1.549389-5.652401 1.549389-4.949438V-1.061618C1.549389-.41604 1.391581-.41604 .459078-.41604V0C.832079-.028692 1.606774-.028692 2.008467-.028692C2.424507-.028692 3.199202-.028692 3.572203 0V-.41604C2.654046-.41604 2.481892-.41604 2.481892-1.061618V-3.730011C2.481892-5.236361 3.471779-6.039748 4.361243-6.039748S5.451554-5.308092 5.451554-4.432974V-1.061618C5.451554-.41604 5.293746-.41604 4.361243-.41604V0C4.734245-.028692 5.508939-.028692 5.910633-.028692C6.326672-.028692 7.101367-.028692 7.474368 0V-.41604C6.757058-.41604 6.398403-.41604 6.384057-.846426V-3.486126Z'/>
<path id='g1-111' d='M6.584904-3.070086C6.584904-4.920745 5.178977-6.398403 3.514818-6.398403C1.793274-6.398403 .430386-4.877707 .430386-3.070086C.430386-1.233773 1.865005 .143462 3.500472 .143462C5.193323 .143462 6.584904-1.262465 6.584904-3.070086ZM3.514818-.172154C2.984009-.172154 2.33843-.401693 1.92239-1.104657C1.535043-1.750236 1.520697-2.596661 1.520697-3.199202C1.520697-3.744357 1.520697-4.619475 1.965429-5.265054C2.367122-5.88194 2.998355-6.111479 3.500472-6.111479C4.059973-6.111479 4.662514-5.853248 5.049861-5.293746C5.494593-4.633821 5.494593-3.730011 5.494593-3.199202C5.494593-2.697085 5.494593-1.807621 5.121592-1.133349C4.719898-.444732 4.059973-.172154 3.514818-.172154Z'/>
<path id='g1-112' d='M3.514818 2.367122C2.596661 2.367122 2.424507 2.367122 2.424507 1.721543V-.774695C2.682739-.41604 3.270933 .143462 4.189089 .143462C5.838902 .143462 7.287867-1.248119 7.287867-3.098778C7.287867-4.920745 5.939325-6.326672 4.37559-6.326672C3.113124-6.326672 2.438853-5.422862 2.395815-5.365477V-6.326672L.401693-6.168864V-5.752824C1.405927-5.752824 1.492004-5.652401 1.492004-5.021168V1.721543C1.492004 2.367122 1.334196 2.367122 .401693 2.367122V2.783162C.774695 2.75447 1.549389 2.75447 1.951083 2.75447C2.367122 2.75447 3.141817 2.75447 3.514818 2.783162V2.367122ZM2.424507-4.576436C2.424507-4.849014 2.424507-4.86336 2.582315-5.092899C3.012701-5.738478 3.715665-6.011056 4.26082-6.011056C5.336785-6.011056 6.197557-4.705552 6.197557-3.098778C6.197557-1.391581 5.222015-.143462 4.117358-.143462C3.672626-.143462 3.256586-.329963 2.969663-.60254C2.6397-.932503 2.424507-1.219427 2.424507-1.62112V-4.576436Z'/>
<path id='g1-115' d='M4.705552-6.068441C4.705552-6.326672 4.705552-6.398403 4.56209-6.398403C4.447321-6.398403 4.174743-6.082787 4.07432-5.953671C3.629588-6.312326 3.184855-6.398403 2.725777-6.398403C.989888-6.398403 .473424-5.451554 .473424-4.662514C.473424-4.504705 .473424-4.002589 1.01858-3.500472C1.477658-3.098778 1.965429-2.998355 2.625354-2.869239C3.414395-2.711431 3.600895-2.668392 3.95955-2.381468C4.217782-2.166276 4.404282-1.850659 4.404282-1.448966C4.404282-.832079 4.045627-.143462 2.783162-.143462C1.836313-.143462 1.147696-.688617 .832079-2.123237C.774695-2.381468 .774695-2.395815 .760348-2.410161C.731656-2.467546 .674271-2.467546 .631233-2.467546C.473424-2.467546 .473424-2.395815 .473424-2.137583V-.186501C.473424 .071731 .473424 .143462 .616886 .143462C.688617 .143462 .702964 .129116 .946849-.172154C1.01858-.272578 1.01858-.30127 1.233773-.530809C1.778928 .143462 2.553623 .143462 2.797508 .143462C4.303859 .143462 5.049861-.688617 5.049861-1.821967C5.049861-2.596661 4.576436-3.05574 4.447321-3.184855C3.930858-3.629588 3.54351-3.715665 2.596661-3.887819C2.166276-3.973896 1.119003-4.174743 1.119003-5.035515C1.119003-5.480247 1.420273-6.140172 2.711431-6.140172C4.275166-6.140172 4.361243-4.805976 4.389936-4.361243C4.404282-4.246474 4.504705-4.246474 4.547744-4.246474C4.705552-4.246474 4.705552-4.318205 4.705552-4.576436V-6.068441Z'/>
<path id='g1-116' d='M2.410161-5.767171H4.432974V-6.18321H2.410161V-8.82291H2.094545C2.080198-7.474368 1.563735-6.097133 .258232-6.054095V-5.767171H1.477658V-1.778928C1.477658-.186501 2.539277 .143462 3.299625 .143462C4.203435 .143462 4.67686-.746002 4.67686-1.778928V-2.596661H4.361243V-1.807621C4.361243-.774695 3.945204-.172154 3.385702-.172154C2.410161-.172154 2.410161-1.506351 2.410161-1.750236V-5.767171Z'/>
<path id='g1-117' d='M4.361243-6.168864V-5.752824C5.336785-5.752824 5.451554-5.652401 5.451554-4.949438V-2.381468C5.451554-1.162042 4.805976-.143462 3.730011-.143462C2.553623-.143462 2.481892-.817733 2.481892-1.578082V-6.326672L.459078-6.168864V-5.752824C1.549389-5.752824 1.549389-5.709786 1.549389-4.432974V-2.281045C1.549389-1.391581 1.549389-.875118 1.979775-.401693C2.324084-.028692 2.912278 .143462 3.643934 .143462C3.887819 .143462 4.346897 .143462 4.834668-.272578C5.250708-.60254 5.480247-1.147696 5.480247-1.147696V.143462L7.474368 0V-.41604C6.498827-.41604 6.384057-.516463 6.384057-1.219427V-6.326672L4.361243-6.168864Z'/>
<path id='g1-121' d='M5.810209-4.791629C6.197557-5.752824 6.871828-5.767171 7.144405-5.767171V-6.18321C6.728366-6.154518 6.527519-6.154518 6.068441-6.154518C5.738478-6.154518 5.709786-6.154518 4.906399-6.18321V-5.767171C5.437208-5.738478 5.566324-5.408516 5.566324-5.150284C5.566324-5.021168 5.537632-4.949438 5.480247-4.805976L4.016935-1.190734L2.424507-5.092899C2.33843-5.293746 2.33843-5.379823 2.33843-5.39417C2.33843-5.767171 2.840547-5.767171 3.127471-5.767171V-6.18321C2.75447-6.154518 2.051506-6.154518 1.649813-6.154518C1.104657-6.154518 1.075965-6.154518 .258232-6.18321V-5.767171C1.090311-5.767171 1.20508-5.69544 1.391581-5.250708L3.529164 0C2.897932 1.520697 2.897932 1.549389 2.840547 1.664159C2.596661 2.094545 2.209314 2.6397 1.563735 2.6397C1.119003 2.6397 .846426 2.381468 .846426 2.381468S1.348542 2.324084 1.348542 1.821967C1.348542 1.477658 1.075965 1.291158 .817733 1.291158C.573848 1.291158 .272578 1.43462 .272578 1.850659C.272578 2.395815 .803387 2.926624 1.563735 2.926624C2.367122 2.926624 2.955316 2.22366 3.328317 1.31985L5.810209-4.791629Z'/>
<path id='g0-11' d='M6.642289-3.629588C6.642289-5.021168 5.853248-6.326672 4.332551-6.326672C2.453199-6.326672 .573848-4.275166 .573848-2.238007C.573848-.989888 1.348542 .143462 2.811854 .143462C3.701318 .143462 4.762937-.200847 5.781517-1.061618C5.982364-.258232 6.427096 .143462 7.043982 .143462C7.818677 .143462 8.206024-.659925 8.206024-.846426C8.206024-.975541 8.105601-.975541 8.062562-.975541C7.947792-.975541 7.933446-.932503 7.890408-.817733C7.761292-.459078 7.431329-.143462 7.087021-.143462C6.642289-.143462 6.642289-1.061618 6.642289-1.936736C8.105601-3.686972 8.449909-5.494593 8.449909-5.508939C8.449909-5.638055 8.33514-5.638055 8.292101-5.638055C8.162985-5.638055 8.148639-5.595016 8.091254-5.336785C7.904754-4.705552 7.531753-3.586549 6.642289-2.410161V-3.629588ZM5.738478-1.405927C4.476013-.272578 3.342664-.143462 2.840547-.143462C1.821967-.143462 1.535043-1.047272 1.535043-1.721543C1.535043-2.33843 1.850659-3.801742 2.295391-4.590783C2.883585-5.595016 3.686972-6.039748 4.332551-6.039748C5.724132-6.039748 5.724132-4.217782 5.724132-3.012701C5.724132-2.654046 5.709786-2.281045 5.709786-1.92239C5.709786-1.635466 5.724132-1.563735 5.738478-1.405927Z'/>
<path id='g0-65' d='M2.438853-1.592428C1.936736-.746002 1.448966-.459078 .760348-.41604C.60254-.401693 .487771-.401693 .487771-.143462C.487771-.057385 .559502 0 .659925 0C.918157 0 1.563735-.028692 1.821967-.028692C2.238007-.028692 2.697085 0 3.098778 0C3.184855 0 3.35701 0 3.35701-.272578C3.35701-.401693 3.24224-.41604 3.156163-.41604C2.826201-.444732 2.553623-.559502 2.553623-.90381C2.553623-1.104657 2.6397-1.262465 2.826201-1.578082L3.916511-3.385702H7.574791C7.589138-3.256586 7.589138-3.141817 7.603484-3.012701C7.646522-2.6397 7.818677-1.147696 7.818677-.875118C7.818677-.444732 7.087021-.41604 6.857482-.41604C6.699673-.41604 6.541865-.41604 6.541865-.157808C6.541865 0 6.670981 0 6.757058 0C7.000943 0 7.287867-.028692 7.531753-.028692H8.349486C9.224604-.028692 9.855836 0 9.870183 0C9.970606 0 10.128414 0 10.128414-.272578C10.128414-.41604 9.999298-.41604 9.784105-.41604C8.995065-.41604 8.980718-.545155 8.93768-.975541L8.062562-9.927567C8.03387-10.214491 7.976485-10.243184 7.818677-10.243184C7.675215-10.243184 7.589138-10.214491 7.460022-9.999298L2.438853-1.592428ZM4.160397-3.801742L7.043982-8.622064L7.531753-3.801742H4.160397Z'/>
<path id='g0-66' d='M5.250708-8.82291C5.379823-9.35372 5.437208-9.382412 5.99671-9.382412H7.861715C9.482835-9.382412 9.482835-8.005177 9.482835-7.876061C9.482835-6.71402 8.320793-5.236361 6.427096-5.236361H4.361243L5.250708-8.82291ZM7.675215-5.121592C9.23895-5.408516 10.659223-6.498827 10.659223-7.818677C10.659223-8.93768 9.669336-9.798452 8.048216-9.798452H3.443087C3.170509-9.798452 3.041393-9.798452 3.041393-9.525874C3.041393-9.382412 3.170509-9.382412 3.385702-9.382412C4.26082-9.382412 4.26082-9.267642 4.26082-9.109834C4.26082-9.081142 4.26082-8.995065 4.203435-8.779872L2.266699-1.061618C2.137583-.559502 2.108891-.41604 1.104657-.41604C.832079-.41604 .688617-.41604 .688617-.157808C.688617 0 .774695 0 1.061618 0H5.982364C8.177332 0 9.870183-1.664159 9.870183-3.113124C9.870183-4.289513 8.837257-5.006822 7.675215-5.121592ZM5.638055-.41604H3.701318C3.500472-.41604 3.471779-.41604 3.385702-.430386C3.227894-.444732 3.213548-.473424 3.213548-.588194C3.213548-.688617 3.24224-.774695 3.270933-.90381L4.275166-4.949438H6.972251C8.665102-4.949438 8.665102-3.371356 8.665102-3.256586C8.665102-1.879352 7.416983-.41604 5.638055-.41604Z'/>
<path id='g0-67' d='M10.716608-9.970606C10.716608-10.099722 10.616185-10.099722 10.587492-10.099722S10.501415-10.099722 10.386646-9.95626L9.396758-8.751179C8.894641-9.611951 8.105601-10.099722 7.029636-10.099722C3.930858-10.099722 .71731-6.957905 .71731-3.586549C.71731-1.190734 2.395815 .30127 4.490359 .30127C5.638055 .30127 6.642289-.186501 7.474368-.889464C8.722487-1.936736 9.095488-3.328317 9.095488-3.443087C9.095488-3.572203 8.980718-3.572203 8.93768-3.572203C8.808564-3.572203 8.794218-3.486126 8.765526-3.428741C8.105601-1.190734 6.168864-.11477 4.734245-.11477C3.213548-.11477 1.893698-1.090311 1.893698-3.127471C1.893698-3.586549 2.03716-6.082787 3.65828-7.962139C4.447321-8.880295 5.795863-9.683682 7.158752-9.683682C8.736833-9.683682 9.439797-8.378178 9.439797-6.914866C9.439797-6.541865 9.396758-6.226249 9.396758-6.168864C9.396758-6.039748 9.54022-6.039748 9.583259-6.039748C9.741067-6.039748 9.755413-6.054095 9.812798-6.312326L10.716608-9.970606Z'/>
</defs>
<g id='page1'>
<g transform='matrix(0.996264 0 0 0.996264 88.5407 155.503)'>
<path d='M 32.2518 102.026L 153.405 57.9301L 88.6236 15.6513L 32.2518 102.026Z' fill='none' stroke='#000000' stroke-linecap='round' stroke-linejoin='round' stroke-miterlimit='10.0375' stroke-width='1.00375'/>
</g>
<use x='106.867816' y='268.480852' xlink:href='#g0-65'/>
<use x='245.533032' y='219.101116' xlink:href='#g0-66'/>
<use x='169.271786' y='166.941307' xlink:href='#g0-67'/>
<use x='203.451093' y='185.802979' xlink:href='#g1-79'/>
<use x='214.376671' y='185.802979' xlink:href='#g1-112'/>
<use x='222.180654' y='185.802979' xlink:href='#g1-112'/>
<use x='230.374822' y='185.802979' xlink:href='#g1-111'/>
<use x='237.398407' y='185.802979' xlink:href='#g1-115'/>
<use x='242.549037' y='185.802979' xlink:href='#g1-19'/>
<use x='242.939248' y='185.802979' xlink:href='#g1-101'/>
<use x='90.239331' y='211.200552' xlink:href='#g1-65'/>
<use x='100.769742' y='211.200552' xlink:href='#g1-100'/>
<use x='108.573726' y='211.200552' xlink:href='#g1-106'/>
<use x='112.865917' y='211.200552' xlink:href='#g1-97'/>
<use x='119.889502' y='211.200552' xlink:href='#g1-99'/>
<use x='126.132689' y='211.200552' xlink:href='#g1-101'/>
<use x='132.375876' y='211.200552' xlink:href='#g1-110'/>
<use x='139.789661' y='211.200552' xlink:href='#g1-116'/>
<use x='159.601993' y='249.01725' xlink:href='#g1-72'/>
<use x='170.132405' y='249.01725' xlink:href='#g1-121'/>
<use x='177.546189' y='249.01725' xlink:href='#g1-112'/>
<use x='185.740357' y='249.01725' xlink:href='#g1-111'/>
<use x='192.763942' y='249.01725' xlink:href='#g1-116'/>
<use x='197.836531' y='249.01725' xlink:href='#g1-19'/>
<use x='198.226743' y='249.01725' xlink:href='#g1-101'/>
<use x='204.46993' y='249.01725' xlink:href='#g1-110'/>
<use x='211.883714' y='249.01725' xlink:href='#g1-117'/>
<use x='219.687698' y='249.01725' xlink:href='#g1-115'/>
<use x='225.228526' y='249.01725' xlink:href='#g1-101'/>
<g transform='matrix(0.996264 0 0 0.996264 88.5407 155.503)'>
<path d='M 58.9959 92.2921C 56.8762 86.4698 52.9094 81.5349 47.8042 78.1962' fill='none' stroke='#000000' stroke-linecap='butt' stroke-linejoin='round' stroke-miterlimit='10.0375' stroke-width='0.501875'/>
</g>
<use x='146.158996' y='237.503861' xlink:href='#g0-11'/>
<g transform='matrix(0.996264 0 0 0.996264 88.5407 155.503)'>
<path d='M 83.8212 23.0096L 91.1795 27.812L 95.9819 20.4537' fill='none' stroke='#000000' stroke-linecap='butt' stroke-linejoin='miter' stroke-miterlimit='10.0375' stroke-width='0.501875'/>
</g>
</g>
</svg>