<?xml version='1.0' encoding='UTF-8'?>
<!-- This file was generated by dvisvgm 2.13.1 -->
<svg version='1.1' xmlns='http://www.w3.org/2000/svg' xmlns:xlink='http://www.w3.org/1999/xlink' width='212.598425pt' height='231.680338pt' viewBox='163.850878 168.531767 212.598425 231.680338'>
<defs>
<path id='g2-49' d='M3.207272-6.981816C3.207272-7.243634 3.207272-7.265453 2.956363-7.265453C2.279999-6.567271 1.32-6.567271 .970909-6.567271V-6.229089C1.189091-6.229089 1.832727-6.229089 2.399999-6.512725V-.861818C2.399999-.469091 2.367272-.338182 1.385454-.338182H1.036363V0C1.418181-.032727 2.367272-.032727 2.803636-.032727S4.18909-.032727 4.570908 0V-.338182H4.221817C3.239999-.338182 3.207272-.458182 3.207272-.861818V-6.981816Z'/>
<path id='g2-50' d='M1.385454-.84L2.541817-1.963636C4.243635-3.46909 4.89818-4.058181 4.89818-5.149089C4.89818-6.392725 3.916363-7.265453 2.585454-7.265453C1.352727-7.265453 .545454-6.261816 .545454-5.290908C.545454-4.679999 1.090909-4.679999 1.123636-4.679999C1.309091-4.679999 1.690909-4.810908 1.690909-5.25818C1.690909-5.541817 1.494545-5.825453 1.112727-5.825453C1.025454-5.825453 1.003636-5.825453 .970909-5.814544C1.221818-6.523635 1.810909-6.927271 2.443636-6.927271C3.436363-6.927271 3.905453-6.043635 3.905453-5.149089C3.905453-4.276362 3.359999-3.414545 2.759999-2.738181L.665454-.403636C.545454-.283636 .545454-.261818 .545454 0H4.592726L4.89818-1.898181H4.625453C4.570908-1.570909 4.494544-1.090909 4.385453-.927272C4.30909-.84 3.58909-.84 3.34909-.84H1.385454Z'/>
<path id='g2-51' d='M3.163635-3.839999C4.058181-4.134544 4.690908-4.89818 4.690908-5.759998C4.690908-6.654544 3.730908-7.265453 2.683636-7.265453C1.581818-7.265453 .752727-6.610907 .752727-5.781817C.752727-5.421817 .992727-5.214544 1.309091-5.214544C1.647272-5.214544 1.865454-5.454544 1.865454-5.770907C1.865454-6.316362 1.352727-6.316362 1.189091-6.316362C1.527272-6.850907 2.247272-6.992725 2.639999-6.992725C3.087272-6.992725 3.687272-6.752725 3.687272-5.770907C3.687272-5.639998 3.665454-5.007271 3.381817-4.527271C3.054545-4.003635 2.683636-3.970908 2.410908-3.959999C2.323636-3.94909 2.061818-3.927272 1.985454-3.927272C1.898181-3.916363 1.821818-3.905453 1.821818-3.796363C1.821818-3.676363 1.898181-3.676363 2.083636-3.676363H2.563636C3.458181-3.676363 3.861817-2.934545 3.861817-1.865454C3.861817-.381818 3.10909-.065455 2.62909-.065455C2.159999-.065455 1.341818-.250909 .96-.894545C1.341818-.84 1.68-1.08 1.68-1.494545C1.68-1.887272 1.385454-2.105454 1.069091-2.105454C.807273-2.105454 .458182-1.952727 .458182-1.472727C.458182-.48 1.472727 .24 2.661817 .24C3.992726 .24 4.985453-.752727 4.985453-1.865454C4.985453-2.759999 4.298181-3.610908 3.163635-3.839999Z'/>
<path id='g2-52' d='M3.207272-1.799999V-.850909C3.207272-.458182 3.185454-.338182 2.378181-.338182H2.14909V0C2.596363-.032727 3.163635-.032727 3.621817-.032727S4.658181-.032727 5.105453 0V-.338182H4.876362C4.06909-.338182 4.047272-.458182 4.047272-.850909V-1.799999H5.13818V-2.138181H4.047272V-7.101816C4.047272-7.319998 4.047272-7.385452 3.872726-7.385452C3.774544-7.385452 3.741817-7.385452 3.654544-7.254543L.305454-2.138181V-1.799999H3.207272ZM3.272726-2.138181H.610909L3.272726-6.207271V-2.138181Z'/>
<path id='g2-53' d='M4.89818-2.192727C4.89818-3.490908 4.003635-4.581817 2.825454-4.581817C2.301818-4.581817 1.832727-4.407271 1.44-4.025453V-6.152726C1.658181-6.087271 2.018181-6.010907 2.367272-6.010907C3.70909-6.010907 4.472726-7.003634 4.472726-7.145453C4.472726-7.210907 4.439999-7.265453 4.363635-7.265453C4.352726-7.265453 4.330908-7.265453 4.276362-7.232725C4.058181-7.134543 3.523635-6.916362 2.792726-6.916362C2.356363-6.916362 1.854545-6.992725 1.341818-7.221816C1.254545-7.254543 1.232727-7.254543 1.210909-7.254543C1.101818-7.254543 1.101818-7.167271 1.101818-6.992725V-3.763635C1.101818-3.567272 1.101818-3.479999 1.254545-3.479999C1.330909-3.479999 1.352727-3.512726 1.396363-3.578181C1.516363-3.752726 1.919999-4.341817 2.803636-4.341817C3.370908-4.341817 3.643635-3.839999 3.730908-3.643635C3.905453-3.239999 3.927272-2.814545 3.927272-2.26909C3.927272-1.887272 3.927272-1.232727 3.665454-.774545C3.403635-.349091 2.999999-.065455 2.498181-.065455C1.701818-.065455 1.08-.643636 .894545-1.287272C.927272-1.276363 .96-1.265454 1.08-1.265454C1.44-1.265454 1.625454-1.538181 1.625454-1.799999S1.44-2.334545 1.08-2.334545C.927272-2.334545 .545454-2.258181 .545454-1.756363C.545454-.818182 1.298181 .24 2.519999 .24C3.785453 .24 4.89818-.807273 4.89818-2.192727Z'/>
<path id='g2-54' d='M1.44-3.578181V-3.839999C1.44-6.599998 2.792726-6.992725 3.34909-6.992725C3.610908-6.992725 4.06909-6.927271 4.30909-6.556362C4.145453-6.556362 3.70909-6.556362 3.70909-6.065453C3.70909-5.727271 3.970908-5.563635 4.210908-5.563635C4.385453-5.563635 4.712726-5.661817 4.712726-6.087271C4.712726-6.741816 4.232726-7.265453 3.327272-7.265453C1.930909-7.265453 .458182-5.85818 .458182-3.447272C.458182-.534545 1.723636 .24 2.738181 .24C3.94909 .24 4.985453-.785454 4.985453-2.225454C4.985453-3.610908 4.014544-4.658181 2.803636-4.658181C2.061818-4.658181 1.658181-4.101817 1.44-3.578181ZM2.738181-.065455C2.050909-.065455 1.723636-.72 1.658181-.883636C1.461818-1.396363 1.461818-2.26909 1.461818-2.465454C1.461818-3.316363 1.810909-4.407271 2.792726-4.407271C2.967272-4.407271 3.46909-4.407271 3.807272-3.730908C4.003635-3.327272 4.003635-2.770908 4.003635-2.236363C4.003635-1.712727 4.003635-1.167272 3.818181-.774545C3.490908-.12 2.98909-.065455 2.738181-.065455Z'/>
<path id='g2-55' d='M5.192726-6.643635C5.290908-6.774544 5.290908-6.796362 5.290908-7.025453H2.639999C1.309091-7.025453 1.287272-7.167271 1.243636-7.374543H.970909L.610909-5.127271H.883636C.916363-5.301817 1.014545-5.989089 1.156363-6.119998C1.232727-6.185453 2.083636-6.185453 2.225454-6.185453H4.483635C4.363635-6.010907 3.501817-4.821817 3.261817-4.461817C2.279999-2.98909 1.919999-1.472727 1.919999-.36C1.919999-.250909 1.919999 .24 2.421818 .24S2.923636-.250909 2.923636-.36V-.916363C2.923636-1.516363 2.956363-2.116363 3.043636-2.705454C3.087272-2.956363 3.239999-3.894544 3.719999-4.570908L5.192726-6.643635Z'/>
<path id='g0-25' d='M2.890908-4.06909H4.123635C3.763635-2.454545 3.665454-1.985454 3.665454-1.254545C3.665454-1.090909 3.665454-.796363 3.752726-.425454C3.861817 .054545 3.981817 .12 4.145453 .12C4.363635 .12 4.592726-.076364 4.592726-.294545C4.592726-.36 4.592726-.381818 4.527271-.534545C4.210908-1.32 4.210908-2.02909 4.210908-2.334545C4.210908-2.912726 4.287272-3.501817 4.407271-4.06909H5.650908C5.792726-4.06909 6.185453-4.06909 6.185453-4.439999C6.185453-4.701817 5.956362-4.701817 5.749089-4.701817H2.094545C1.854545-4.701817 1.44-4.701817 .96-4.18909C.578182-3.763635 .294545-3.261817 .294545-3.207272C.294545-3.196363 .294545-3.098181 .425454-3.098181C.512727-3.098181 .534545-3.141817 .6-3.22909C1.134545-4.06909 1.767272-4.06909 1.985454-4.06909H2.607272C2.258181-2.74909 1.66909-1.429091 1.210909-.436364C1.123636-.272727 1.123636-.250909 1.123636-.174545C1.123636 .032727 1.298181 .12 1.44 .12C1.767272 .12 1.854545-.185454 1.985454-.589091C2.138181-1.090909 2.138181-1.112727 2.279999-1.658181L2.890908-4.06909Z'/>
<path id='g1-25' d='M4.458799-6.490221H6.404144C5.939327-4.562092 5.646665-3.305365 5.646665-1.928129C5.646665-1.687113 5.646665 .172154 6.352498 .172154C6.714022 .172154 7.0239-.154939 7.0239-.447601C7.0239-.533679 7.0239-.56811 6.903392-.826341C6.438575-2.014207 6.438575-3.494734 6.438575-3.615243C6.438575-3.718535 6.438575-4.940832 6.800099-6.490221H8.728229C8.952029-6.490221 9.520139-6.490221 9.520139-7.041115C9.520139-7.419855 9.193045-7.419855 8.883167-7.419855H3.219287C2.823332-7.419855 2.238007-7.419855 1.446097-6.576298C.998496-6.077051 .447601-5.164632 .447601-5.06134S.533679-4.923616 .636971-4.923616C.757479-4.923616 .774695-4.975262 .860772-5.078555C1.755975-6.490221 2.651178-6.490221 3.081564-6.490221H4.062844C3.684104-5.199063 3.253718-3.70132 1.842052-.688618C1.704329-.413171 1.704329-.37874 1.704329-.275447C1.704329 .086077 2.014207 .172154 2.169146 .172154C2.668393 .172154 2.806117-.275447 3.012702-.998496C3.288149-1.876483 3.288149-1.910914 3.460304-2.599532L4.458799-6.490221Z'/>
<path id='g3-48' d='M7.230485-5.526157C7.230485-6.576298 7.21327-8.366704 6.490221-9.74394C5.85325-10.94902 4.837539-11.379406 3.942336-11.379406C3.115995-11.379406 2.065853-11.000667 1.411666-9.761155C.723049-8.469997 .654187-6.868961 .654187-5.526157C.654187-4.544876 .671402-3.047133 1.205081-1.73876C1.945345 .034431 3.270934 .275447 3.942336 .275447C4.734246 .275447 5.939327-.051646 6.64516-1.687113C7.161623-2.874979 7.230485-4.269429 7.230485-5.526157ZM3.942336 0C2.840548 0 2.186361-.946849 1.945345-2.255223C1.755975-3.270934 1.755975-4.751462 1.755975-5.715526C1.755975-7.041115 1.755975-8.142904 1.979776-9.193045C2.306869-10.656358 3.270934-11.103959 3.942336-11.103959C4.648169-11.103959 5.560587-10.639142 5.887681-9.227476C6.111482-8.246196 6.128697-7.092762 6.128697-5.715526C6.128697-4.596523 6.128697-3.219287 5.922112-2.203576C5.560587-.327093 4.544876 0 3.942336 0Z'/>
</defs>
<g id='page1'>
<g transform='matrix(0.996264 0 0 0.996264 163.851 168.532)'>
<path d='M 198.77 115.104C 198.77 64.8869 158.061 24.1782 107.844 24.1782C 57.6277 24.1782 16.919 64.8869 16.919 115.104C 16.919 165.32 57.6277 206.029 107.844 206.029C 158.061 206.029 198.77 165.32 198.77 115.104Z' fill='none' stroke='#000000' stroke-linecap='round' stroke-linejoin='round' stroke-miterlimit='10.0375' stroke-width='2.0075'/>
</g>
<use x='366.663799' y='288.693872' xlink:href='#g3-48'/>
<g transform='matrix(0.996264 0 0 0.996264 163.851 168.532)'>
<path d='M 107.844 115.104L 198.77 115.104' fill='none' stroke='#000000' stroke-linecap='round' stroke-linejoin='round' stroke-miterlimit='10.0375' stroke-width='0.501875'/>
</g>
<use x='355.082473' y='226.426186' xlink:href='#g0-25'/>
<rect x='355.082473' y='228.701345' height='.398484' width='6.609872'/>
<use x='355.66014' y='239.141017' xlink:href='#g2-54'/>
<g transform='matrix(0.996264 0 0 0.996264 163.851 168.532)'>
<path d='M 107.844 115.104L 186.588 69.6409' fill='none' stroke='#000000' stroke-linecap='round' stroke-linejoin='round' stroke-miterlimit='10.0375' stroke-width='0.501875'/>
</g>
<use x='339.926767' y='202.995177' xlink:href='#g0-25'/>
<rect x='339.926767' y='205.270336' height='.398484' width='6.609872'/>
<use x='340.504435' y='215.710008' xlink:href='#g2-52'/>
<g transform='matrix(0.996264 0 0 0.996264 163.851 168.532)'>
<path d='M 107.844 115.104L 172.138 50.8096' fill='none' stroke='#000000' stroke-linecap='round' stroke-linejoin='round' stroke-miterlimit='10.0375' stroke-width='0.501875'/>
</g>
<use x='318.273424' y='187.839486' xlink:href='#g0-25'/>
<rect x='318.273424' y='190.114646' height='.398484' width='6.609872'/>
<use x='318.851092' y='200.554318' xlink:href='#g2-51'/>
<g transform='matrix(0.996264 0 0 0.996264 163.851 168.532)'>
<path d='M 107.844 115.104L 153.307 36.3599' fill='none' stroke='#000000' stroke-linecap='round' stroke-linejoin='round' stroke-miterlimit='10.0375' stroke-width='0.501875'/>
</g>
<use x='267.991203' y='175.062647' xlink:href='#g0-25'/>
<rect x='267.991203' y='177.337806' height='.398484' width='6.609872'/>
<use x='268.568871' y='187.777478' xlink:href='#g2-50'/>
<g transform='matrix(0.996264 0 0 0.996264 163.851 168.532)'>
<path d='M 107.844 115.104L 107.844 24.1782' fill='none' stroke='#000000' stroke-linecap='round' stroke-linejoin='round' stroke-miterlimit='10.0375' stroke-width='0.501875'/>
</g>
<use x='213.407075' y='187.839608' xlink:href='#g2-50'/>
<use x='218.86164' y='187.839608' xlink:href='#g0-25'/>
<rect x='213.407075' y='190.114767' height='.398484' width='12.064423'/>
<use x='216.712019' y='200.554439' xlink:href='#g2-51'/>
<g transform='matrix(0.996264 0 0 0.996264 163.851 168.532)'>
<path d='M 107.844 115.104L 62.3817 36.3599' fill='none' stroke='#000000' stroke-linecap='round' stroke-linejoin='round' stroke-miterlimit='10.0375' stroke-width='0.501875'/>
</g>
<use x='190.601057' y='202.995298' xlink:href='#g2-51'/>
<use x='196.055622' y='202.995298' xlink:href='#g0-25'/>
<rect x='190.601057' y='205.270458' height='.398484' width='12.064423'/>
<use x='193.906001' y='215.71013' xlink:href='#g2-52'/>
<g transform='matrix(0.996264 0 0 0.996264 163.851 168.532)'>
<path d='M 107.844 115.104L 43.5504 50.8096' fill='none' stroke='#000000' stroke-linecap='round' stroke-linejoin='round' stroke-miterlimit='10.0375' stroke-width='0.501875'/>
</g>
<use x='175.445367' y='226.919119' xlink:href='#g2-53'/>
<use x='180.899931' y='226.919119' xlink:href='#g0-25'/>
<rect x='175.445367' y='229.194278' height='.398484' width='12.064423'/>
<use x='178.75031' y='239.63395' xlink:href='#g2-54'/>
<g transform='matrix(0.996264 0 0 0.996264 163.851 168.532)'>
<path d='M 107.844 115.104L 29.1007 69.6409' fill='none' stroke='#000000' stroke-linecap='round' stroke-linejoin='round' stroke-miterlimit='10.0375' stroke-width='0.501875'/>
</g>
<use x='165.748712' y='286.851355' xlink:href='#g1-25'/>
<g transform='matrix(0.996264 0 0 0.996264 163.851 168.532)'>
<path d='M 107.844 115.104L 16.919 115.104' fill='none' stroke='#000000' stroke-linecap='round' stroke-linejoin='round' stroke-miterlimit='10.0375' stroke-width='0.501875'/>
</g>
<use x='175.445367' y='333.686861' xlink:href='#g2-55'/>
<use x='180.899931' y='333.686861' xlink:href='#g0-25'/>
<rect x='175.445367' y='335.96202' height='.398484' width='12.064423'/>
<use x='178.75031' y='346.401693' xlink:href='#g2-54'/>
<g transform='matrix(0.996264 0 0 0.996264 163.851 168.532)'>
<path d='M 107.844 115.104L 29.1007 160.566' fill='none' stroke='#000000' stroke-linecap='round' stroke-linejoin='round' stroke-miterlimit='10.0375' stroke-width='0.501875'/>
</g>
<use x='190.601057' y='357.610681' xlink:href='#g2-53'/>
<use x='196.055622' y='357.610681' xlink:href='#g0-25'/>
<rect x='190.601057' y='359.885841' height='.398484' width='12.064423'/>
<use x='193.906001' y='370.325513' xlink:href='#g2-52'/>
<g transform='matrix(0.996264 0 0 0.996264 163.851 168.532)'>
<path d='M 107.844 115.104L 43.5504 179.397' fill='none' stroke='#000000' stroke-linecap='round' stroke-linejoin='round' stroke-miterlimit='10.0375' stroke-width='0.501875'/>
</g>
<use x='213.407075' y='372.766387' xlink:href='#g2-52'/>
<use x='218.86164' y='372.766387' xlink:href='#g0-25'/>
<rect x='213.407075' y='375.041546' height='.398484' width='12.064423'/>
<use x='216.712019' y='385.481219' xlink:href='#g2-51'/>
<g transform='matrix(0.996264 0 0 0.996264 163.851 168.532)'>
<path d='M 107.844 115.104L 62.3817 193.847' fill='none' stroke='#000000' stroke-linecap='round' stroke-linejoin='round' stroke-miterlimit='10.0375' stroke-width='0.501875'/>
</g>
<use x='265.263927' y='385.543227' xlink:href='#g2-51'/>
<use x='270.718492' y='385.543227' xlink:href='#g0-25'/>
<rect x='265.263927' y='387.818386' height='.398484' width='12.064423'/>
<use x='268.568871' y='398.258058' xlink:href='#g2-50'/>
<g transform='matrix(0.996264 0 0 0.996264 163.851 168.532)'>
<path d='M 107.844 115.104L 107.844 206.029' fill='none' stroke='#000000' stroke-linecap='round' stroke-linejoin='round' stroke-miterlimit='10.0375' stroke-width='0.501875'/>
</g>
<use x='317.120764' y='372.766387' xlink:href='#g2-53'/>
<use x='322.575329' y='372.766387' xlink:href='#g0-25'/>
<rect x='317.120764' y='375.041546' height='.398484' width='12.064423'/>
<use x='320.425708' y='385.481219' xlink:href='#g2-51'/>
<g transform='matrix(0.996264 0 0 0.996264 163.851 168.532)'>
<path d='M 107.844 115.104L 153.307 193.847' fill='none' stroke='#000000' stroke-linecap='round' stroke-linejoin='round' stroke-miterlimit='10.0375' stroke-width='0.501875'/>
</g>
<use x='339.926767' y='357.610681' xlink:href='#g2-55'/>
<use x='345.381332' y='357.610681' xlink:href='#g0-25'/>
<rect x='339.926767' y='359.885841' height='.398484' width='12.064423'/>
<use x='343.23171' y='370.325513' xlink:href='#g2-52'/>
<g transform='matrix(0.996264 0 0 0.996264 163.851 168.532)'>
<path d='M 107.844 115.104L 172.138 179.397' fill='none' stroke='#000000' stroke-linecap='round' stroke-linejoin='round' stroke-miterlimit='10.0375' stroke-width='0.501875'/>
</g>
<use x='355.082473' y='333.686861' xlink:href='#g2-49'/>
<use x='360.537037' y='333.686861' xlink:href='#g2-49'/>
<use x='365.991602' y='333.686861' xlink:href='#g0-25'/>
<rect x='355.082473' y='335.96202' height='.398484' width='17.518975'/>
<use x='361.114692' y='346.401693' xlink:href='#g2-54'/>
<g transform='matrix(0.996264 0 0 0.996264 163.851 168.532)'>
<path d='M 107.844 115.104L 186.588 160.566' fill='none' stroke='#000000' stroke-linecap='round' stroke-linejoin='round' stroke-miterlimit='10.0375' stroke-width='0.501875'/>
</g>
</g>
</svg>